(kicad_pcb (version 20171130) (host pcbnew 5.1.5-52549c5~86~ubuntu18.04.1)

  (general
    (thickness 1.6)
    (drawings 33)
    (tracks 130)
    (zones 0)
    (modules 3)
    (nets 29)
  )

  (page A4)
  (title_block
    (title "Adapter MS88SF2")
    (rev 0.1)
    (company "Matthias Deimbacher")
    (comment 1 "CERN Open Hardware Licence Version 2 - Strongly Reciprocal")
  )

  (layers
    (0 F.Cu signal)
    (31 B.Cu signal)
    (32 B.Adhes user)
    (33 F.Adhes user)
    (34 B.Paste user)
    (35 F.Paste user)
    (36 B.SilkS user)
    (37 F.SilkS user)
    (38 B.Mask user)
    (39 F.Mask user)
    (40 Dwgs.User user)
    (41 Cmts.User user)
    (42 Eco1.User user)
    (43 Eco2.User user)
    (44 Edge.Cuts user)
    (45 Margin user)
    (46 B.CrtYd user)
    (47 F.CrtYd user)
    (48 B.Fab user)
    (49 F.Fab user)
  )

  (setup
    (last_trace_width 0.8)
    (trace_clearance 0.2)
    (zone_clearance 0.308)
    (zone_45_only no)
    (trace_min 0.2)
    (via_size 0.8)
    (via_drill 0.4)
    (via_min_size 0.4)
    (via_min_drill 0.3)
    (uvia_size 0.3)
    (uvia_drill 0.1)
    (uvias_allowed no)
    (uvia_min_size 0.2)
    (uvia_min_drill 0.1)
    (edge_width 0.05)
    (segment_width 0.5)
    (pcb_text_width 0.3)
    (pcb_text_size 1.5 1.5)
    (mod_edge_width 0.12)
    (mod_text_size 1 1)
    (mod_text_width 0.15)
    (pad_size 1.524 1.524)
    (pad_drill 0.762)
    (pad_to_mask_clearance 0.051)
    (solder_mask_min_width 0.25)
    (aux_axis_origin 0 0)
    (visible_elements FFFFFF7F)
    (pcbplotparams
      (layerselection 0x010fc_ffffffff)
      (usegerberextensions false)
      (usegerberattributes false)
      (usegerberadvancedattributes false)
      (creategerberjobfile false)
      (excludeedgelayer true)
      (linewidth 0.100000)
      (plotframeref false)
      (viasonmask false)
      (mode 1)
      (useauxorigin false)
      (hpglpennumber 1)
      (hpglpenspeed 20)
      (hpglpendiameter 15.000000)
      (psnegative false)
      (psa4output false)
      (plotreference true)
      (plotvalue true)
      (plotinvisibletext false)
      (padsonsilk false)
      (subtractmaskfromsilk false)
      (outputformat 1)
      (mirror false)
      (drillshape 1)
      (scaleselection 1)
      (outputdirectory ""))
  )

  (net 0 "")
  (net 1 P14)
  (net 2 P13)
  (net 3 P12)
  (net 4 P11)
  (net 5 P10)
  (net 6 P9)
  (net 7 P8)
  (net 8 P7)
  (net 9 P6)
  (net 10 P5)
  (net 11 P4)
  (net 12 P3)
  (net 13 P2)
  (net 14 P1)
  (net 15 P28)
  (net 16 P27)
  (net 17 P26)
  (net 18 P25)
  (net 19 P24)
  (net 20 P23)
  (net 21 P22)
  (net 22 P21)
  (net 23 P20)
  (net 24 P19)
  (net 25 P18)
  (net 26 P17)
  (net 27 P16)
  (net 28 P15)

  (net_class Default "This is the default net class."
    (clearance 0.2)
    (trace_width 0.8)
    (via_dia 0.8)
    (via_drill 0.4)
    (uvia_dia 0.3)
    (uvia_drill 0.1)
    (add_net P1)
    (add_net P10)
    (add_net P11)
    (add_net P12)
    (add_net P13)
    (add_net P14)
    (add_net P15)
    (add_net P16)
    (add_net P17)
    (add_net P18)
    (add_net P19)
    (add_net P2)
    (add_net P20)
    (add_net P21)
    (add_net P22)
    (add_net P23)
    (add_net P24)
    (add_net P25)
    (add_net P26)
    (add_net P27)
    (add_net P28)
    (add_net P3)
    (add_net P4)
    (add_net P5)
    (add_net P6)
    (add_net P7)
    (add_net P8)
    (add_net P9)
  )

  (module my_microcontroller:MS88SF2 (layer F.Cu) (tedit 5EB9AEBC) (tstamp 5EBA21C4)
    (at 154.94 86.36)
    (path /5EB9BFB5)
    (attr smd)
    (fp_text reference U1 (at 0 10) (layer F.SilkS) hide
      (effects (font (size 1 1) (thickness 0.15)))
    )
    (fp_text value MS88SF2 (at 0 -0.5) (layer F.Fab)
      (effects (font (size 1 1) (thickness 0.15)))
    )
    (fp_line (start -14 -12) (end -10 -15) (layer Dwgs.User) (width 0.12))
    (fp_line (start 11 -8) (end 14 -11) (layer Dwgs.User) (width 0.12))
    (fp_line (start 6 -8) (end 13 -15) (layer Dwgs.User) (width 0.12))
    (fp_line (start -1 -8) (end 7 -15) (layer Dwgs.User) (width 0.12))
    (fp_line (start -8 -8) (end 1 -15) (layer Dwgs.User) (width 0.12))
    (fp_line (start -14 -8) (end -4 -15) (layer Dwgs.User) (width 0.12))
    (fp_line (start -14 -15) (end -14 -8) (layer Dwgs.User) (width 0.12))
    (fp_line (start 14 -15) (end -14 -15) (layer Dwgs.User) (width 0.12))
    (fp_line (start 14 -8) (end 14 -15) (layer Dwgs.User) (width 0.12))
    (fp_line (start -14 -8) (end 14 -8) (layer Dwgs.User) (width 0.12))
    (fp_text user "Keep out zone" (at 0 -11) (layer Cmts.User)
      (effects (font (size 1 1) (thickness 0.15)))
    )
    (fp_line (start 14 -7) (end 11 -7) (layer F.CrtYd) (width 0.12))
    (fp_line (start 14 -15) (end 14 -7) (layer F.CrtYd) (width 0.12))
    (fp_line (start -14 -15) (end 14 -15) (layer F.CrtYd) (width 0.12))
    (fp_line (start -14 -7) (end -14 -15) (layer F.CrtYd) (width 0.12))
    (fp_line (start -11 -7) (end -14 -7) (layer F.CrtYd) (width 0.12))
    (fp_line (start 11 -7) (end 11 9) (layer F.CrtYd) (width 0.12))
    (fp_line (start -11 9) (end -11 -7) (layer F.CrtYd) (width 0.12))
    (fp_line (start 11 9) (end -11 9) (layer F.CrtYd) (width 0.12))
    (fp_circle (center -6 -6.5) (end -6 -7) (layer F.SilkS) (width 0.12))
    (fp_line (start 9 -15) (end 9 -13) (layer F.SilkS) (width 0.12))
    (fp_line (start 7 -15) (end 9 -15) (layer F.SilkS) (width 0.12))
    (fp_line (start -8 -15) (end -7 -15) (layer F.SilkS) (width 0.12))
    (fp_line (start -9 -15) (end -8 -15) (layer F.SilkS) (width 0.12))
    (fp_line (start -9 -13) (end -9 -15) (layer F.SilkS) (width 0.12))
    (fp_line (start 7 -8) (end -7 -8) (layer F.SilkS) (width 0.12))
    (fp_line (start 7 9) (end 7 -8) (layer F.SilkS) (width 0.12))
    (fp_line (start -7 9) (end 7 9) (layer F.SilkS) (width 0.12))
    (fp_line (start -7 -8) (end -7 9) (layer F.SilkS) (width 0.12))
    (fp_circle (center -7 -6.6) (end -6.6 -6.6) (layer F.Fab) (width 0.12))
    (fp_line (start 8.6 8.8) (end 8.7 8.8) (layer F.Fab) (width 0.12))
    (fp_line (start -8.7 8.8) (end 8.6 8.8) (layer F.Fab) (width 0.12))
    (fp_line (start -8.7 -14.3) (end -8.7 8.8) (layer F.Fab) (width 0.12))
    (fp_line (start 8.7 -14.3) (end -8.7 -14.3) (layer F.Fab) (width 0.12))
    (fp_line (start 8.7 8.8) (end 8.7 -14.3) (layer F.Fab) (width 0.12))
    (fp_text user REF** (at 0 -3 180) (layer F.Fab)
      (effects (font (size 1 1) (thickness 0.15)))
    )
    (pad 28 smd rect (at 8.7 -6.6) (size 2.5 0.8) (layers F.Cu F.Paste F.Mask)
      (net 15 P28))
    (pad 27 smd rect (at 8.7 -5.5) (size 2.5 0.8) (layers F.Cu F.Paste F.Mask)
      (net 16 P27))
    (pad 26 smd rect (at 8.7 -4.4) (size 2.5 0.8) (layers F.Cu F.Paste F.Mask)
      (net 17 P26))
    (pad 25 smd rect (at 8.7 -3.3) (size 2.5 0.8) (layers F.Cu F.Paste F.Mask)
      (net 18 P25))
    (pad 24 smd rect (at 8.7 -2.2) (size 2.5 0.8) (layers F.Cu F.Paste F.Mask)
      (net 19 P24))
    (pad 23 smd rect (at 8.7 -1.1) (size 2.5 0.8) (layers F.Cu F.Paste F.Mask)
      (net 20 P23))
    (pad 22 smd rect (at 8.7 0) (size 2.5 0.8) (layers F.Cu F.Paste F.Mask)
      (net 21 P22))
    (pad 21 smd rect (at 8.7 1.1) (size 2.5 0.8) (layers F.Cu F.Paste F.Mask)
      (net 22 P21))
    (pad 20 smd rect (at 8.7 2.2) (size 2.5 0.8) (layers F.Cu F.Paste F.Mask)
      (net 23 P20))
    (pad 19 smd rect (at 8.7 3.3) (size 2.5 0.8) (layers F.Cu F.Paste F.Mask)
      (net 24 P19))
    (pad 18 smd rect (at 8.7 4.4) (size 2.5 0.8) (layers F.Cu F.Paste F.Mask)
      (net 25 P18))
    (pad 17 smd rect (at 8.7 5.5) (size 2.5 0.8) (layers F.Cu F.Paste F.Mask)
      (net 26 P17))
    (pad 16 smd rect (at 8.7 6.6) (size 2.5 0.8) (layers F.Cu F.Paste F.Mask)
      (net 27 P16))
    (pad 15 smd rect (at 8.7 7.7) (size 2.5 0.8) (layers F.Cu F.Paste F.Mask)
      (net 28 P15))
    (pad 14 smd rect (at -8.7 7.7) (size 2.5 0.8) (layers F.Cu F.Paste F.Mask)
      (net 1 P14))
    (pad 13 smd rect (at -8.7 6.6) (size 2.5 0.8) (layers F.Cu F.Paste F.Mask)
      (net 2 P13))
    (pad 12 smd rect (at -8.7 5.5) (size 2.5 0.8) (layers F.Cu F.Paste F.Mask)
      (net 3 P12))
    (pad 11 smd rect (at -8.7 4.4) (size 2.5 0.8) (layers F.Cu F.Paste F.Mask)
      (net 4 P11))
    (pad 10 smd rect (at -8.7 3.3) (size 2.5 0.8) (layers F.Cu F.Paste F.Mask)
      (net 5 P10))
    (pad 9 smd rect (at -8.7 2.2) (size 2.5 0.8) (layers F.Cu F.Paste F.Mask)
      (net 6 P9))
    (pad 8 smd rect (at -8.7 1.1) (size 2.5 0.8) (layers F.Cu F.Paste F.Mask)
      (net 7 P8))
    (pad 7 smd rect (at -8.7 0) (size 2.5 0.8) (layers F.Cu F.Paste F.Mask)
      (net 8 P7))
    (pad 6 smd rect (at -8.7 -1.1) (size 2.5 0.8) (layers F.Cu F.Paste F.Mask)
      (net 9 P6))
    (pad 5 smd rect (at -8.7 -2.2) (size 2.5 0.8) (layers F.Cu F.Paste F.Mask)
      (net 10 P5))
    (pad 4 smd rect (at -8.7 -3.3) (size 2.5 0.8) (layers F.Cu F.Paste F.Mask)
      (net 11 P4))
    (pad 3 smd rect (at -8.7 -4.4) (size 2.5 0.8) (layers F.Cu F.Paste F.Mask)
      (net 12 P3))
    (pad 2 smd rect (at -8.7 -5.5) (size 2.5 0.8) (layers F.Cu F.Paste F.Mask)
      (net 13 P2))
    (pad 1 smd rect (at -8.7 -6.6) (size 2.5 0.8) (layers F.Cu F.Paste F.Mask)
      (net 14 P1))
  )

  (module Connector_PinHeader_2.54mm:PinHeader_1x14_P2.54mm_Vertical (layer F.Cu) (tedit 59FED5CC) (tstamp 5EBA2A68)
    (at 170.18 114.3 180)
    (descr "Through hole straight pin header, 1x14, 2.54mm pitch, single row")
    (tags "Through hole pin header THT 1x14 2.54mm single row")
    (path /5EB9EA43)
    (fp_text reference J2 (at 2.54 -0.635) (layer F.SilkS) hide
      (effects (font (size 1 1) (thickness 0.15)))
    )
    (fp_text value Conn_01x14 (at 0 35.35) (layer F.Fab)
      (effects (font (size 1 1) (thickness 0.15)))
    )
    (fp_text user %R (at 0 16.51 90) (layer F.Fab)
      (effects (font (size 1 1) (thickness 0.15)))
    )
    (fp_line (start 1.8 -1.8) (end -1.8 -1.8) (layer F.CrtYd) (width 0.05))
    (fp_line (start 1.8 34.8) (end 1.8 -1.8) (layer F.CrtYd) (width 0.05))
    (fp_line (start -1.8 34.8) (end 1.8 34.8) (layer F.CrtYd) (width 0.05))
    (fp_line (start -1.8 -1.8) (end -1.8 34.8) (layer F.CrtYd) (width 0.05))
    (fp_line (start -1.33 -1.33) (end 0 -1.33) (layer F.SilkS) (width 0.12))
    (fp_line (start -1.33 0) (end -1.33 -1.33) (layer F.SilkS) (width 0.12))
    (fp_line (start -1.33 1.27) (end 1.33 1.27) (layer F.SilkS) (width 0.12))
    (fp_line (start 1.33 1.27) (end 1.33 34.35) (layer F.SilkS) (width 0.12))
    (fp_line (start -1.33 1.27) (end -1.33 34.35) (layer F.SilkS) (width 0.12))
    (fp_line (start -1.33 34.35) (end 1.33 34.35) (layer F.SilkS) (width 0.12))
    (fp_line (start -1.27 -0.635) (end -0.635 -1.27) (layer F.Fab) (width 0.1))
    (fp_line (start -1.27 34.29) (end -1.27 -0.635) (layer F.Fab) (width 0.1))
    (fp_line (start 1.27 34.29) (end -1.27 34.29) (layer F.Fab) (width 0.1))
    (fp_line (start 1.27 -1.27) (end 1.27 34.29) (layer F.Fab) (width 0.1))
    (fp_line (start -0.635 -1.27) (end 1.27 -1.27) (layer F.Fab) (width 0.1))
    (pad 14 thru_hole oval (at 0 33.02 180) (size 1.7 1.7) (drill 1) (layers *.Cu *.Mask)
      (net 15 P28))
    (pad 13 thru_hole oval (at 0 30.48 180) (size 1.7 1.7) (drill 1) (layers *.Cu *.Mask)
      (net 16 P27))
    (pad 12 thru_hole oval (at 0 27.94 180) (size 1.7 1.7) (drill 1) (layers *.Cu *.Mask)
      (net 17 P26))
    (pad 11 thru_hole oval (at 0 25.4 180) (size 1.7 1.7) (drill 1) (layers *.Cu *.Mask)
      (net 18 P25))
    (pad 10 thru_hole oval (at 0 22.86 180) (size 1.7 1.7) (drill 1) (layers *.Cu *.Mask)
      (net 19 P24))
    (pad 9 thru_hole oval (at 0 20.32 180) (size 1.7 1.7) (drill 1) (layers *.Cu *.Mask)
      (net 20 P23))
    (pad 8 thru_hole oval (at 0 17.78 180) (size 1.7 1.7) (drill 1) (layers *.Cu *.Mask)
      (net 21 P22))
    (pad 7 thru_hole oval (at 0 15.24 180) (size 1.7 1.7) (drill 1) (layers *.Cu *.Mask)
      (net 22 P21))
    (pad 6 thru_hole oval (at 0 12.7 180) (size 1.7 1.7) (drill 1) (layers *.Cu *.Mask)
      (net 23 P20))
    (pad 5 thru_hole oval (at 0 10.16 180) (size 1.7 1.7) (drill 1) (layers *.Cu *.Mask)
      (net 24 P19))
    (pad 4 thru_hole oval (at 0 7.62 180) (size 1.7 1.7) (drill 1) (layers *.Cu *.Mask)
      (net 25 P18))
    (pad 3 thru_hole oval (at 0 5.08 180) (size 1.7 1.7) (drill 1) (layers *.Cu *.Mask)
      (net 26 P17))
    (pad 2 thru_hole oval (at 0 2.54 180) (size 1.7 1.7) (drill 1) (layers *.Cu *.Mask)
      (net 27 P16))
    (pad 1 thru_hole rect (at 0 0 180) (size 1.7 1.7) (drill 1) (layers *.Cu *.Mask)
      (net 28 P15))
    (model ${KISYS3DMOD}/Connector_PinHeader_2.54mm.3dshapes/PinHeader_1x14_P2.54mm_Vertical.wrl
      (at (xyz 0 0 0))
      (scale (xyz 1 1 1))
      (rotate (xyz 0 0 0))
    )
  )

  (module Connector_PinHeader_2.54mm:PinHeader_1x14_P2.54mm_Vertical (layer F.Cu) (tedit 59FED5CC) (tstamp 5EBB081A)
    (at 139.7 81.28)
    (descr "Through hole straight pin header, 1x14, 2.54mm pitch, single row")
    (tags "Through hole pin header THT 1x14 2.54mm single row")
    (path /5EB9DFBD)
    (fp_text reference J1 (at 2.54 33.655) (layer F.SilkS) hide
      (effects (font (size 1 1) (thickness 0.15)))
    )
    (fp_text value Conn_01x14 (at 0 35.35) (layer F.Fab)
      (effects (font (size 1 1) (thickness 0.15)))
    )
    (fp_text user %R (at 0 16.51 90) (layer F.Fab)
      (effects (font (size 1 1) (thickness 0.15)))
    )
    (fp_line (start 1.8 -1.8) (end -1.8 -1.8) (layer F.CrtYd) (width 0.05))
    (fp_line (start 1.8 34.8) (end 1.8 -1.8) (layer F.CrtYd) (width 0.05))
    (fp_line (start -1.8 34.8) (end 1.8 34.8) (layer F.CrtYd) (width 0.05))
    (fp_line (start -1.8 -1.8) (end -1.8 34.8) (layer F.CrtYd) (width 0.05))
    (fp_line (start -1.33 -1.33) (end 0 -1.33) (layer F.SilkS) (width 0.12))
    (fp_line (start -1.33 0) (end -1.33 -1.33) (layer F.SilkS) (width 0.12))
    (fp_line (start -1.33 1.27) (end 1.33 1.27) (layer F.SilkS) (width 0.12))
    (fp_line (start 1.33 1.27) (end 1.33 34.35) (layer F.SilkS) (width 0.12))
    (fp_line (start -1.33 1.27) (end -1.33 34.35) (layer F.SilkS) (width 0.12))
    (fp_line (start -1.33 34.35) (end 1.33 34.35) (layer F.SilkS) (width 0.12))
    (fp_line (start -1.27 -0.635) (end -0.635 -1.27) (layer F.Fab) (width 0.1))
    (fp_line (start -1.27 34.29) (end -1.27 -0.635) (layer F.Fab) (width 0.1))
    (fp_line (start 1.27 34.29) (end -1.27 34.29) (layer F.Fab) (width 0.1))
    (fp_line (start 1.27 -1.27) (end 1.27 34.29) (layer F.Fab) (width 0.1))
    (fp_line (start -0.635 -1.27) (end 1.27 -1.27) (layer F.Fab) (width 0.1))
    (pad 14 thru_hole oval (at 0 33.02) (size 1.7 1.7) (drill 1) (layers *.Cu *.Mask)
      (net 1 P14))
    (pad 13 thru_hole oval (at 0 30.48) (size 1.7 1.7) (drill 1) (layers *.Cu *.Mask)
      (net 2 P13))
    (pad 12 thru_hole oval (at 0 27.94) (size 1.7 1.7) (drill 1) (layers *.Cu *.Mask)
      (net 3 P12))
    (pad 11 thru_hole oval (at 0 25.4) (size 1.7 1.7) (drill 1) (layers *.Cu *.Mask)
      (net 4 P11))
    (pad 10 thru_hole oval (at 0 22.86) (size 1.7 1.7) (drill 1) (layers *.Cu *.Mask)
      (net 5 P10))
    (pad 9 thru_hole oval (at 0 20.32) (size 1.7 1.7) (drill 1) (layers *.Cu *.Mask)
      (net 6 P9))
    (pad 8 thru_hole oval (at 0 17.78) (size 1.7 1.7) (drill 1) (layers *.Cu *.Mask)
      (net 7 P8))
    (pad 7 thru_hole oval (at 0 15.24) (size 1.7 1.7) (drill 1) (layers *.Cu *.Mask)
      (net 8 P7))
    (pad 6 thru_hole oval (at 0 12.7) (size 1.7 1.7) (drill 1) (layers *.Cu *.Mask)
      (net 9 P6))
    (pad 5 thru_hole oval (at 0 10.16) (size 1.7 1.7) (drill 1) (layers *.Cu *.Mask)
      (net 10 P5))
    (pad 4 thru_hole oval (at 0 7.62) (size 1.7 1.7) (drill 1) (layers *.Cu *.Mask)
      (net 11 P4))
    (pad 3 thru_hole oval (at 0 5.08) (size 1.7 1.7) (drill 1) (layers *.Cu *.Mask)
      (net 12 P3))
    (pad 2 thru_hole oval (at 0 2.54) (size 1.7 1.7) (drill 1) (layers *.Cu *.Mask)
      (net 13 P2))
    (pad 1 thru_hole rect (at 0 0) (size 1.7 1.7) (drill 1) (layers *.Cu *.Mask)
      (net 14 P1))
    (model ${KISYS3DMOD}/Connector_PinHeader_2.54mm.3dshapes/PinHeader_1x14_P2.54mm_Vertical.wrl
      (at (xyz 0 0 0))
      (scale (xyz 1 1 1))
      (rotate (xyz 0 0 0))
    )
  )

  (gr_text "Adapter\nMS88SF2\nrev0.1" (at 154.94 112.268) (layer F.SilkS)
    (effects (font (size 1 1) (thickness 0.15)))
  )
  (gr_text VDDH (at 168.148 114.3 90) (layer F.SilkS) (tstamp 5EBB6BD4)
    (effects (font (size 0.6 0.6) (thickness 0.1)))
  )
  (gr_text D- (at 167.132 111.76 90) (layer F.SilkS) (tstamp 5EBB6BD4)
    (effects (font (size 0.6 0.6) (thickness 0.1)))
  )
  (gr_text D+ (at 168.148 109.22 90) (layer F.SilkS) (tstamp 5EBB6BD4)
    (effects (font (size 0.6 0.6) (thickness 0.1)))
  )
  (gr_text P0.13 (at 167.132 106.68 90) (layer F.SilkS) (tstamp 5EBB6BD4)
    (effects (font (size 0.6 0.6) (thickness 0.1)))
  )
  (gr_text P0.15 (at 168.148 104.14 90) (layer F.SilkS) (tstamp 5EBB6BD4)
    (effects (font (size 0.6 0.6) (thickness 0.1)))
  )
  (gr_text "P0.18\nRST" (at 167.132 101.6 90) (layer F.SilkS) (tstamp 5EBB6BD4)
    (effects (font (size 0.6 0.6) (thickness 0.1)))
  )
  (gr_text P0.20 (at 168.148 99.06 90) (layer F.SilkS) (tstamp 5EBB6BD4)
    (effects (font (size 0.6 0.6) (thickness 0.1)))
  )
  (gr_text P0.22 (at 167.132 96.52 90) (layer F.SilkS) (tstamp 5EBB6BD4)
    (effects (font (size 0.6 0.6) (thickness 0.1)))
  )
  (gr_text P0.24 (at 168.148 93.98 90) (layer F.SilkS) (tstamp 5EBB6BD4)
    (effects (font (size 0.6 0.6) (thickness 0.1)))
  )
  (gr_text P1.00 (at 167.132 91.44 90) (layer F.SilkS) (tstamp 5EBB6BD4)
    (effects (font (size 0.6 0.6) (thickness 0.1)))
  )
  (gr_text SWDIO (at 168.148 88.9 90) (layer F.SilkS) (tstamp 5EBB6BD4)
    (effects (font (size 0.6 0.6) (thickness 0.1)))
  )
  (gr_text SWDCLK (at 167.132 86.36 90) (layer F.SilkS) (tstamp 5EBB6BD4)
    (effects (font (size 0.6 0.6) (thickness 0.1)))
  )
  (gr_text P0.09 (at 168.148 83.82 90) (layer F.SilkS) (tstamp 5EBB6B34)
    (effects (font (size 0.6 0.6) (thickness 0.1)))
  )
  (gr_text P0.10 (at 167.132 81.026 90) (layer F.SilkS) (tstamp 5EBB6B34)
    (effects (font (size 0.6 0.6) (thickness 0.1)))
  )
  (gr_text VCC (at 141.732 114.554 270) (layer F.SilkS) (tstamp 5EBB6B34)
    (effects (font (size 0.6 0.6) (thickness 0.1)))
  )
  (gr_text GND1 (at 142.748 111.76 270) (layer F.SilkS) (tstamp 5EBB6B34)
    (effects (font (size 0.6 0.6) (thickness 0.1)))
  )
  (gr_text P0.12 (at 141.732 109.22 270) (layer F.SilkS) (tstamp 5EBB6B34)
    (effects (font (size 0.6 0.6) (thickness 0.1)))
  )
  (gr_text P1.09 (at 142.748 106.68 270) (layer F.SilkS) (tstamp 5EBB6B34)
    (effects (font (size 0.6 0.6) (thickness 0.1)))
  )
  (gr_text P0.08 (at 141.732 104.14 270) (layer F.SilkS) (tstamp 5EBB6B34)
    (effects (font (size 0.6 0.6) (thickness 0.1)))
  )
  (gr_text P0.06 (at 142.748 101.6 270) (layer F.SilkS) (tstamp 5EBB6B34)
    (effects (font (size 0.6 0.6) (thickness 0.1)))
  )
  (gr_text P0.04 (at 141.732 99.06 270) (layer F.SilkS) (tstamp 5EBB6B34)
    (effects (font (size 0.6 0.6) (thickness 0.1)))
  )
  (gr_text P0.26 (at 142.748 96.52 270) (layer F.SilkS) (tstamp 5EBB6B34)
    (effects (font (size 0.6 0.6) (thickness 0.1)))
  )
  (gr_text P0.31 (at 141.732 93.98 270) (layer F.SilkS) (tstamp 5EBB6B34)
    (effects (font (size 0.6 0.6) (thickness 0.1)))
  )
  (gr_text P0.29 (at 142.748 91.44 270) (layer F.SilkS) (tstamp 5EBB6B34)
    (effects (font (size 0.6 0.6) (thickness 0.1)))
  )
  (gr_text P0.02 (at 141.732 88.9 270) (layer F.SilkS)
    (effects (font (size 0.6 0.6) (thickness 0.1)))
  )
  (gr_text GND (at 142.748 81.28 270) (layer F.SilkS)
    (effects (font (size 0.6 0.6) (thickness 0.1)))
  )
  (gr_text P1.15 (at 142.748 86.36 270) (layer F.SilkS)
    (effects (font (size 0.6 0.6) (thickness 0.1)))
  )
  (gr_text P1.13 (at 141.732 83.82 270) (layer F.SilkS)
    (effects (font (size 0.6 0.6) (thickness 0.1)))
  )
  (gr_line (start 137.795 78.74) (end 171.958 78.74) (layer Edge.Cuts) (width 0.05) (tstamp 5EBA2A02))
  (gr_line (start 137.795 116.205) (end 137.795 78.74) (layer Edge.Cuts) (width 0.05))
  (gr_line (start 171.958 116.205) (end 137.795 116.205) (layer Edge.Cuts) (width 0.05))
  (gr_line (start 171.958 78.74) (end 171.958 116.205) (layer Edge.Cuts) (width 0.05))

  (segment (start 143.4223 110.066) (end 146.24 107.2483) (width 0.8) (layer F.Cu) (net 1))
  (segment (start 146.24 107.2483) (end 146.24 94.06) (width 0.8) (layer F.Cu) (net 1))
  (segment (start 139.7 114.3) (end 143.4223 110.5777) (width 0.8) (layer B.Cu) (net 1))
  (segment (start 143.4223 110.5777) (end 143.4223 110.066) (width 0.8) (layer B.Cu) (net 1))
  (via (at 143.4223 110.066) (size 0.8) (layers F.Cu B.Cu) (net 1))
  (segment (start 146.24 91.86) (end 144.19 91.86) (width 0.8) (layer F.Cu) (net 3))
  (segment (start 139.7 109.22) (end 144.19 104.73) (width 0.8) (layer F.Cu) (net 3))
  (segment (start 144.19 104.73) (end 144.19 91.86) (width 0.8) (layer F.Cu) (net 3))
  (segment (start 151.7641 93.9491) (end 148.6746 90.8596) (width 0.8) (layer F.Cu) (net 4))
  (segment (start 148.6746 90.8596) (end 146.3396 90.8596) (width 0.8) (layer F.Cu) (net 4))
  (segment (start 146.3396 90.8596) (end 146.24 90.76) (width 0.8) (layer F.Cu) (net 4))
  (segment (start 139.7 106.68) (end 151.7641 94.6159) (width 0.8) (layer B.Cu) (net 4))
  (segment (start 151.7641 94.6159) (end 151.7641 93.9491) (width 0.8) (layer B.Cu) (net 4))
  (via (at 151.7641 93.9491) (size 0.8) (layers F.Cu B.Cu) (net 4))
  (segment (start 146.24 89.66) (end 148.1192 89.66) (width 0.8) (layer F.Cu) (net 5))
  (segment (start 148.1192 89.66) (end 148.2375 89.7783) (width 0.8) (layer F.Cu) (net 5))
  (segment (start 148.2375 89.7783) (end 150.3197 89.7783) (width 0.8) (layer F.Cu) (net 5))
  (segment (start 150.3197 89.7783) (end 150.5627 89.5353) (width 0.8) (layer F.Cu) (net 5))
  (segment (start 139.7 104.14) (end 150.5627 93.2773) (width 0.8) (layer B.Cu) (net 5))
  (segment (start 150.5627 93.2773) (end 150.5627 89.5353) (width 0.8) (layer B.Cu) (net 5))
  (via (at 150.5627 89.5353) (size 0.8) (layers F.Cu B.Cu) (net 5))
  (segment (start 146.24 88.56) (end 144.19 88.56) (width 0.8) (layer F.Cu) (net 6))
  (segment (start 144.19 88.56) (end 142.509 90.241) (width 0.8) (layer F.Cu) (net 6))
  (segment (start 142.509 90.241) (end 142.509 98.791) (width 0.8) (layer F.Cu) (net 6))
  (segment (start 142.509 98.791) (end 139.7 101.6) (width 0.8) (layer F.Cu) (net 6))
  (segment (start 148.6519 88.778) (end 148.6519 90.1081) (width 0.8) (layer B.Cu) (net 7))
  (segment (start 148.6519 90.1081) (end 139.7 99.06) (width 0.8) (layer B.Cu) (net 7))
  (segment (start 146.24 87.46) (end 147.639 87.46) (width 0.8) (layer F.Cu) (net 7))
  (segment (start 147.639 87.46) (end 148.6519 88.4729) (width 0.8) (layer F.Cu) (net 7))
  (segment (start 148.6519 88.4729) (end 148.6519 88.778) (width 0.8) (layer F.Cu) (net 7))
  (via (at 148.6519 88.778) (size 0.8) (layers F.Cu B.Cu) (net 7))
  (segment (start 148.3198 86.6165) (end 148.3198 87.5646) (width 0.8) (layer B.Cu) (net 8))
  (segment (start 148.3198 87.5646) (end 139.7 96.1844) (width 0.8) (layer B.Cu) (net 8))
  (segment (start 139.7 96.1844) (end 139.7 96.52) (width 0.8) (layer B.Cu) (net 8))
  (segment (start 146.24 86.36) (end 148.29 86.36) (width 0.8) (layer F.Cu) (net 8))
  (segment (start 148.3198 86.6165) (end 148.29 86.5867) (width 0.8) (layer F.Cu) (net 8))
  (segment (start 148.29 86.5867) (end 148.29 86.36) (width 0.8) (layer F.Cu) (net 8))
  (via (at 148.3198 86.6165) (size 0.8) (layers F.Cu B.Cu) (net 8))
  (segment (start 139.7 93.98) (end 141.1504 92.5296) (width 0.8) (layer F.Cu) (net 9))
  (segment (start 141.1504 92.5296) (end 141.1504 88.8643) (width 0.8) (layer F.Cu) (net 9))
  (segment (start 141.1504 88.8643) (end 144.7547 85.26) (width 0.8) (layer F.Cu) (net 9))
  (segment (start 144.7547 85.26) (end 146.24 85.26) (width 0.8) (layer F.Cu) (net 9))
  (segment (start 139.7 91.44) (end 141.35 91.44) (width 0.8) (layer B.Cu) (net 10))
  (segment (start 146.24 84.16) (end 148.29 84.16) (width 0.8) (layer F.Cu) (net 10))
  (segment (start 148.3198 83.7504) (end 148.29 83.7802) (width 0.8) (layer F.Cu) (net 10))
  (segment (start 148.29 83.7802) (end 148.29 84.16) (width 0.8) (layer F.Cu) (net 10))
  (segment (start 141.35 91.44) (end 141.35 90.7202) (width 0.8) (layer B.Cu) (net 10))
  (segment (start 141.35 90.7202) (end 148.3198 83.7504) (width 0.8) (layer B.Cu) (net 10))
  (via (at 148.3198 83.7504) (size 0.8) (layers F.Cu B.Cu) (net 10))
  (segment (start 146.24 83.06) (end 144.19 83.06) (width 0.8) (layer F.Cu) (net 11))
  (segment (start 139.7 88.9) (end 144.19 84.41) (width 0.8) (layer F.Cu) (net 11))
  (segment (start 144.19 84.41) (end 144.19 83.06) (width 0.8) (layer F.Cu) (net 11))
  (segment (start 139.7 86.36) (end 139.7 86.1053) (width 0.8) (layer F.Cu) (net 12))
  (segment (start 139.7 86.1053) (end 143.8453 81.96) (width 0.8) (layer F.Cu) (net 12))
  (segment (start 143.8453 81.96) (end 146.24 81.96) (width 0.8) (layer F.Cu) (net 12))
  (segment (start 139.7 83.82) (end 139.8068 83.82) (width 0.8) (layer F.Cu) (net 13))
  (segment (start 139.8068 83.82) (end 142.7668 80.86) (width 0.8) (layer F.Cu) (net 13))
  (segment (start 142.7668 80.86) (end 146.24 80.86) (width 0.8) (layer F.Cu) (net 13))
  (segment (start 139.7 81.28) (end 141.35 81.28) (width 0.8) (layer B.Cu) (net 14))
  (via (at 143.764 79.756) (size 0.8) (layers F.Cu B.Cu) (net 14))
  (segment (start 143.768 79.76) (end 143.764 79.756) (width 0.8) (layer F.Cu) (net 14))
  (segment (start 146.24 79.76) (end 143.768 79.76) (width 0.8) (layer F.Cu) (net 14))
  (segment (start 170.18 81.28) (end 168.53 81.28) (width 0.8) (layer F.Cu) (net 15))
  (segment (start 168.53 81.28) (end 167.01 79.76) (width 0.8) (layer F.Cu) (net 15))
  (segment (start 167.01 79.76) (end 163.64 79.76) (width 0.8) (layer F.Cu) (net 15))
  (segment (start 163.64 80.86) (end 166.6638 80.86) (width 0.8) (layer F.Cu) (net 16))
  (segment (start 166.6638 80.86) (end 169.6238 83.82) (width 0.8) (layer F.Cu) (net 16))
  (segment (start 169.6238 83.82) (end 170.18 83.82) (width 0.8) (layer F.Cu) (net 16))
  (segment (start 170.18 86.36) (end 170.18 86.2889) (width 0.8) (layer F.Cu) (net 17))
  (segment (start 170.18 86.2889) (end 165.8511 81.96) (width 0.8) (layer F.Cu) (net 17))
  (segment (start 165.8511 81.96) (end 163.64 81.96) (width 0.8) (layer F.Cu) (net 17))
  (segment (start 165.5167 83.0832) (end 163.6632 83.0832) (width 0.8) (layer F.Cu) (net 18))
  (segment (start 163.6632 83.0832) (end 163.64 83.06) (width 0.8) (layer F.Cu) (net 18))
  (segment (start 170.18 88.9) (end 165.5167 84.2367) (width 0.8) (layer B.Cu) (net 18))
  (segment (start 165.5167 84.2367) (end 165.5167 83.0832) (width 0.8) (layer B.Cu) (net 18))
  (via (at 165.5167 83.0832) (size 0.8) (layers F.Cu B.Cu) (net 18))
  (segment (start 170.18 91.44) (end 166.7855 88.0455) (width 0.8) (layer F.Cu) (net 19))
  (segment (start 166.7855 88.0455) (end 166.7855 84.9259) (width 0.8) (layer F.Cu) (net 19))
  (segment (start 166.7855 84.9259) (end 166.0196 84.16) (width 0.8) (layer F.Cu) (net 19))
  (segment (start 166.0196 84.16) (end 163.64 84.16) (width 0.8) (layer F.Cu) (net 19))
  (segment (start 163.64 85.26) (end 165.69 85.26) (width 0.8) (layer F.Cu) (net 20))
  (segment (start 165.69 85.26) (end 165.69 89.49) (width 0.8) (layer F.Cu) (net 20))
  (segment (start 165.69 89.49) (end 170.18 93.98) (width 0.8) (layer F.Cu) (net 20))
  (segment (start 170.18 96.52) (end 168.1172 94.4572) (width 0.8) (layer B.Cu) (net 21))
  (segment (start 168.1172 94.4572) (end 168.1172 92.4999) (width 0.8) (layer B.Cu) (net 21))
  (segment (start 168.1172 92.4999) (end 161.6838 86.0665) (width 0.8) (layer B.Cu) (net 21))
  (segment (start 161.6838 86.0665) (end 161.4971 86.0665) (width 0.8) (layer B.Cu) (net 21))
  (segment (start 163.64 86.36) (end 161.59 86.36) (width 0.8) (layer F.Cu) (net 21))
  (segment (start 161.4971 86.0665) (end 161.59 86.1594) (width 0.8) (layer F.Cu) (net 21))
  (segment (start 161.59 86.1594) (end 161.59 86.36) (width 0.8) (layer F.Cu) (net 21))
  (via (at 161.4971 86.0665) (size 0.8) (layers F.Cu B.Cu) (net 21))
  (segment (start 161.7582 87.5556) (end 163.5444 87.5556) (width 0.8) (layer F.Cu) (net 22))
  (segment (start 163.5444 87.5556) (end 163.64 87.46) (width 0.8) (layer F.Cu) (net 22))
  (segment (start 170.18 99.06) (end 163.5887 92.4687) (width 0.8) (layer B.Cu) (net 22))
  (segment (start 163.5887 92.4687) (end 163.5887 89.3861) (width 0.8) (layer B.Cu) (net 22))
  (segment (start 163.5887 89.3861) (end 161.7582 87.5556) (width 0.8) (layer B.Cu) (net 22))
  (via (at 161.7582 87.5556) (size 0.8) (layers F.Cu B.Cu) (net 22))
  (segment (start 161.3974 88.7075) (end 161.5449 88.56) (width 0.8) (layer F.Cu) (net 23))
  (segment (start 161.5449 88.56) (end 163.64 88.56) (width 0.8) (layer F.Cu) (net 23))
  (segment (start 170.18 101.6) (end 168.7296 100.1496) (width 0.8) (layer B.Cu) (net 23))
  (segment (start 168.7296 100.1496) (end 168.7296 99.4622) (width 0.8) (layer B.Cu) (net 23))
  (segment (start 168.7296 99.4622) (end 161.3974 92.13) (width 0.8) (layer B.Cu) (net 23))
  (segment (start 161.3974 92.13) (end 161.3974 88.7075) (width 0.8) (layer B.Cu) (net 23))
  (via (at 161.3974 88.7075) (size 0.8) (layers F.Cu B.Cu) (net 23))
  (segment (start 170.18 104.14) (end 168.53 104.14) (width 0.8) (layer B.Cu) (net 24))
  (segment (start 163.3036 98.6207) (end 160.7799 96.097) (width 0.8) (layer F.Cu) (net 24))
  (segment (start 160.7799 96.097) (end 160.7799 90.7398) (width 0.8) (layer F.Cu) (net 24))
  (segment (start 160.7799 90.7398) (end 161.8597 89.66) (width 0.8) (layer F.Cu) (net 24))
  (segment (start 161.8597 89.66) (end 163.64 89.66) (width 0.8) (layer F.Cu) (net 24))
  (segment (start 168.53 104.14) (end 168.53 103.8471) (width 0.8) (layer B.Cu) (net 24))
  (segment (start 168.53 103.8471) (end 163.3036 98.6207) (width 0.8) (layer B.Cu) (net 24))
  (via (at 163.3036 98.6207) (size 0.8) (layers F.Cu B.Cu) (net 24))
  (segment (start 170.18 106.68) (end 168.53 106.68) (width 0.8) (layer B.Cu) (net 25))
  (segment (start 161.7847 94.3213) (end 161.7847 99.9347) (width 0.8) (layer B.Cu) (net 25))
  (segment (start 161.7847 99.9347) (end 168.53 106.68) (width 0.8) (layer B.Cu) (net 25))
  (segment (start 163.64 90.76) (end 162.2361 90.76) (width 0.8) (layer F.Cu) (net 25))
  (segment (start 162.2361 90.76) (end 161.7847 91.2114) (width 0.8) (layer F.Cu) (net 25))
  (segment (start 161.7847 91.2114) (end 161.7847 94.3213) (width 0.8) (layer F.Cu) (net 25))
  (via (at 161.7847 94.3213) (size 0.8) (layers F.Cu B.Cu) (net 25))
  (segment (start 170.18 109.22) (end 168.7296 107.7696) (width 0.8) (layer F.Cu) (net 26))
  (segment (start 168.7296 107.7696) (end 168.7296 94.226) (width 0.8) (layer F.Cu) (net 26))
  (segment (start 168.7296 94.226) (end 166.3636 91.86) (width 0.8) (layer F.Cu) (net 26))
  (segment (start 166.3636 91.86) (end 163.64 91.86) (width 0.8) (layer F.Cu) (net 26))
  (segment (start 170.18 111.76) (end 167.2372 108.8172) (width 0.8) (layer F.Cu) (net 27))
  (segment (start 167.2372 108.8172) (end 167.2372 94.1526) (width 0.8) (layer F.Cu) (net 27))
  (segment (start 167.2372 94.1526) (end 166.0446 92.96) (width 0.8) (layer F.Cu) (net 27))
  (segment (start 166.0446 92.96) (end 163.64 92.96) (width 0.8) (layer F.Cu) (net 27))
  (segment (start 170.18 114.3) (end 165.69 109.81) (width 0.8) (layer F.Cu) (net 28))
  (segment (start 165.69 109.81) (end 165.69 94.06) (width 0.8) (layer F.Cu) (net 28))
  (segment (start 163.64 94.06) (end 165.69 94.06) (width 0.8) (layer F.Cu) (net 28))

  (zone (net 0) (net_name "") (layers F&B.Cu) (tstamp 0) (hatch edge 0.508)
    (connect_pads (clearance 0.508))
    (min_thickness 0.254)
    (keepout (tracks not_allowed) (vias not_allowed) (copperpour allowed))
    (fill (arc_segments 32) (thermal_gap 0.508) (thermal_bridge_width 0.508))
    (polygon
      (pts
        (xy 172.72 78.74) (xy 137.16 78.74) (xy 137.16 71.12) (xy 172.72 71.12)
      )
    )
  )
  (zone (net 14) (net_name P1) (layer B.Cu) (tstamp 0) (hatch edge 0.508)
    (connect_pads (clearance 0.308))
    (min_thickness 0.254)
    (fill yes (arc_segments 32) (thermal_gap 0.508) (thermal_bridge_width 0.508))
    (polygon
      (pts
        (xy 171.323 115.824) (xy 138.684 115.824) (xy 138.684 79.121) (xy 171.323 79.121)
      )
    )
    (filled_polygon
      (pts
        (xy 171.196 80.487612) (xy 171.178125 80.46086) (xy 170.99914 80.281875) (xy 170.788676 80.141247) (xy 170.554821 80.044381)
        (xy 170.306561 79.995) (xy 170.053439 79.995) (xy 169.805179 80.044381) (xy 169.571324 80.141247) (xy 169.36086 80.281875)
        (xy 169.181875 80.46086) (xy 169.041247 80.671324) (xy 168.944381 80.905179) (xy 168.895 81.153439) (xy 168.895 81.406561)
        (xy 168.944381 81.654821) (xy 169.041247 81.888676) (xy 169.181875 82.09914) (xy 169.36086 82.278125) (xy 169.571324 82.418753)
        (xy 169.805179 82.515619) (xy 169.978027 82.55) (xy 169.805179 82.584381) (xy 169.571324 82.681247) (xy 169.36086 82.821875)
        (xy 169.181875 83.00086) (xy 169.041247 83.211324) (xy 168.944381 83.445179) (xy 168.895 83.693439) (xy 168.895 83.946561)
        (xy 168.944381 84.194821) (xy 169.041247 84.428676) (xy 169.181875 84.63914) (xy 169.36086 84.818125) (xy 169.571324 84.958753)
        (xy 169.805179 85.055619) (xy 169.978027 85.09) (xy 169.805179 85.124381) (xy 169.571324 85.221247) (xy 169.36086 85.361875)
        (xy 169.181875 85.54086) (xy 169.041247 85.751324) (xy 168.944381 85.985179) (xy 168.895 86.233439) (xy 168.895 86.434132)
        (xy 166.3517 83.890833) (xy 166.3517 83.00096) (xy 166.343658 82.960532) (xy 166.339618 82.919511) (xy 166.327652 82.880064)
        (xy 166.319611 82.83964) (xy 166.303839 82.801562) (xy 166.291872 82.762113) (xy 166.27244 82.725758) (xy 166.256667 82.687679)
        (xy 166.233767 82.653407) (xy 166.214336 82.617054) (xy 166.188187 82.585191) (xy 166.165287 82.550919) (xy 166.136141 82.521773)
        (xy 166.109991 82.489909) (xy 166.078127 82.463759) (xy 166.048981 82.434613) (xy 166.014709 82.411713) (xy 165.982846 82.385564)
        (xy 165.946493 82.366133) (xy 165.912221 82.343233) (xy 165.874142 82.32746) (xy 165.837787 82.308028) (xy 165.798338 82.296061)
        (xy 165.76026 82.280289) (xy 165.719836 82.272248) (xy 165.680389 82.260282) (xy 165.639368 82.256242) (xy 165.59894 82.2482)
        (xy 165.557719 82.2482) (xy 165.5167 82.24416) (xy 165.475682 82.2482) (xy 165.43446 82.2482) (xy 165.394031 82.256242)
        (xy 165.353012 82.260282) (xy 165.313567 82.272247) (xy 165.27314 82.280289) (xy 165.23506 82.296062) (xy 165.195614 82.308028)
        (xy 165.159262 82.327458) (xy 165.121179 82.343233) (xy 165.086903 82.366136) (xy 165.050555 82.385564) (xy 165.018697 82.411709)
        (xy 164.984419 82.434613) (xy 164.955269 82.463763) (xy 164.92341 82.489909) (xy 164.897264 82.521768) (xy 164.868113 82.550919)
        (xy 164.845209 82.585198) (xy 164.819065 82.617054) (xy 164.799638 82.653399) (xy 164.776733 82.687679) (xy 164.760957 82.725766)
        (xy 164.741529 82.762113) (xy 164.729565 82.801553) (xy 164.713789 82.83964) (xy 164.705746 82.880074) (xy 164.693783 82.919511)
        (xy 164.689744 82.960522) (xy 164.6817 83.00096) (xy 164.6817 83.16544) (xy 164.681701 83.165445) (xy 164.6817 84.195681)
        (xy 164.67766 84.2367) (xy 164.6817 84.277718) (xy 164.693782 84.400388) (xy 164.741528 84.557786) (xy 164.819064 84.702845)
        (xy 164.923409 84.829991) (xy 164.955279 84.856146) (xy 168.895 88.795868) (xy 168.895 89.026561) (xy 168.944381 89.274821)
        (xy 169.041247 89.508676) (xy 169.181875 89.71914) (xy 169.36086 89.898125) (xy 169.571324 90.038753) (xy 169.805179 90.135619)
        (xy 169.978027 90.17) (xy 169.805179 90.204381) (xy 169.571324 90.301247) (xy 169.36086 90.441875) (xy 169.181875 90.62086)
        (xy 169.041247 90.831324) (xy 168.944381 91.065179) (xy 168.895 91.313439) (xy 168.895 91.566561) (xy 168.944381 91.814821)
        (xy 169.041247 92.048676) (xy 169.181875 92.25914) (xy 169.36086 92.438125) (xy 169.571324 92.578753) (xy 169.805179 92.675619)
        (xy 169.978027 92.71) (xy 169.805179 92.744381) (xy 169.571324 92.841247) (xy 169.36086 92.981875) (xy 169.181875 93.16086)
        (xy 169.041247 93.371324) (xy 168.9522 93.586302) (xy 168.9522 92.540918) (xy 168.95624 92.4999) (xy 168.940118 92.336212)
        (xy 168.892372 92.178813) (xy 168.822812 92.048676) (xy 168.814836 92.033754) (xy 168.710491 91.906609) (xy 168.678632 91.880463)
        (xy 162.303246 85.505079) (xy 162.277091 85.473209) (xy 162.149946 85.368864) (xy 162.004887 85.291328) (xy 161.847489 85.243582)
        (xy 161.724819 85.2315) (xy 161.724818 85.2315) (xy 161.6838 85.22746) (xy 161.642782 85.2315) (xy 161.41486 85.2315)
        (xy 161.374432 85.239542) (xy 161.333411 85.243582) (xy 161.293964 85.255548) (xy 161.25354 85.263589) (xy 161.215462 85.279361)
        (xy 161.176013 85.291328) (xy 161.139658 85.31076) (xy 161.101579 85.326533) (xy 161.067307 85.349433) (xy 161.030954 85.368864)
        (xy 160.999091 85.395013) (xy 160.964819 85.417913) (xy 160.935673 85.447059) (xy 160.903809 85.473209) (xy 160.877659 85.505073)
        (xy 160.848513 85.534219) (xy 160.825613 85.568491) (xy 160.799464 85.600354) (xy 160.780033 85.636707) (xy 160.757133 85.670979)
        (xy 160.74136 85.709058) (xy 160.721928 85.745413) (xy 160.709961 85.784862) (xy 160.694189 85.82294) (xy 160.686148 85.863364)
        (xy 160.674182 85.902811) (xy 160.670142 85.943832) (xy 160.6621 85.98426) (xy 160.6621 86.025481) (xy 160.65806 86.0665)
        (xy 160.6621 86.107519) (xy 160.6621 86.14874) (xy 160.670142 86.189168) (xy 160.674182 86.230189) (xy 160.686148 86.269636)
        (xy 160.694189 86.31006) (xy 160.709961 86.348138) (xy 160.721928 86.387587) (xy 160.74136 86.423942) (xy 160.757133 86.462021)
        (xy 160.780033 86.496293) (xy 160.799464 86.532646) (xy 160.825613 86.564509) (xy 160.848513 86.598781) (xy 160.877659 86.627927)
        (xy 160.903809 86.659791) (xy 160.935673 86.685941) (xy 160.964819 86.715087) (xy 160.999091 86.737987) (xy 161.030954 86.764136)
        (xy 161.067307 86.783567) (xy 161.101579 86.806467) (xy 161.139658 86.82224) (xy 161.176013 86.841672) (xy 161.215462 86.853639)
        (xy 161.25354 86.869411) (xy 161.273314 86.873344) (xy 161.260198 86.884108) (xy 161.225919 86.907013) (xy 161.196765 86.936167)
        (xy 161.16491 86.96231) (xy 161.138767 86.994165) (xy 161.109613 87.023319) (xy 161.086708 87.057598) (xy 161.060564 87.089455)
        (xy 161.041136 87.125803) (xy 161.018233 87.160079) (xy 161.002458 87.198162) (xy 160.983028 87.234514) (xy 160.971062 87.27396)
        (xy 160.955289 87.31204) (xy 160.947247 87.352467) (xy 160.935282 87.391912) (xy 160.931242 87.432931) (xy 160.9232 87.47336)
        (xy 160.9232 87.514582) (xy 160.91916 87.5556) (xy 160.9232 87.596618) (xy 160.9232 87.63784) (xy 160.931242 87.678269)
        (xy 160.935282 87.719288) (xy 160.947247 87.758733) (xy 160.955289 87.79916) (xy 160.971062 87.83724) (xy 160.983028 87.876686)
        (xy 161.002458 87.913038) (xy 161.018233 87.951121) (xy 161.023277 87.95867) (xy 161.001879 87.967533) (xy 160.967603 87.990436)
        (xy 160.931255 88.009864) (xy 160.899397 88.036009) (xy 160.865119 88.058913) (xy 160.835969 88.088063) (xy 160.80411 88.114209)
        (xy 160.777964 88.146068) (xy 160.748813 88.175219) (xy 160.725909 88.209498) (xy 160.699765 88.241354) (xy 160.680338 88.277699)
        (xy 160.657433 88.311979) (xy 160.641657 88.350066) (xy 160.622229 88.386413) (xy 160.610265 88.425853) (xy 160.594489 88.46394)
        (xy 160.586446 88.504374) (xy 160.574483 88.543811) (xy 160.570444 88.584822) (xy 160.5624 88.62526) (xy 160.5624 88.78974)
        (xy 160.562401 88.789745) (xy 160.5624 92.088981) (xy 160.55836 92.13) (xy 160.5624 92.171018) (xy 160.574482 92.293688)
        (xy 160.622228 92.451086) (xy 160.699764 92.596145) (xy 160.804109 92.723291) (xy 160.835979 92.749446) (xy 161.593316 93.506783)
        (xy 161.581564 93.510348) (xy 161.54114 93.518389) (xy 161.503062 93.534161) (xy 161.463613 93.546128) (xy 161.427258 93.56556)
        (xy 161.389179 93.581333) (xy 161.354907 93.604233) (xy 161.318554 93.623664) (xy 161.286691 93.649813) (xy 161.252419 93.672713)
        (xy 161.223273 93.701859) (xy 161.191409 93.728009) (xy 161.16526 93.759872) (xy 161.136113 93.789019) (xy 161.11321 93.823295)
        (xy 161.087064 93.855155) (xy 161.067636 93.891503) (xy 161.044733 93.925779) (xy 161.028958 93.963862) (xy 161.009528 94.000214)
        (xy 160.997562 94.03966) (xy 160.981789 94.07774) (xy 160.973747 94.118167) (xy 160.961782 94.157612) (xy 160.957742 94.198631)
        (xy 160.9497 94.23906) (xy 160.9497 94.280282) (xy 160.949701 99.893672) (xy 160.94566 99.9347) (xy 160.961782 100.098388)
        (xy 161.009528 100.255786) (xy 161.087064 100.400845) (xy 161.087065 100.400846) (xy 161.19141 100.527991) (xy 161.223274 100.554141)
        (xy 167.910563 107.241432) (xy 167.936709 107.273291) (xy 168.063854 107.377636) (xy 168.208913 107.455172) (xy 168.366311 107.502918)
        (xy 168.488981 107.515) (xy 168.488982 107.515) (xy 168.53 107.51904) (xy 168.571018 107.515) (xy 169.197735 107.515)
        (xy 169.36086 107.678125) (xy 169.571324 107.818753) (xy 169.805179 107.915619) (xy 169.978027 107.95) (xy 169.805179 107.984381)
        (xy 169.571324 108.081247) (xy 169.36086 108.221875) (xy 169.181875 108.40086) (xy 169.041247 108.611324) (xy 168.944381 108.845179)
        (xy 168.895 109.093439) (xy 168.895 109.346561) (xy 168.944381 109.594821) (xy 169.041247 109.828676) (xy 169.181875 110.03914)
        (xy 169.36086 110.218125) (xy 169.571324 110.358753) (xy 169.805179 110.455619) (xy 169.978027 110.49) (xy 169.805179 110.524381)
        (xy 169.571324 110.621247) (xy 169.36086 110.761875) (xy 169.181875 110.94086) (xy 169.041247 111.151324) (xy 168.944381 111.385179)
        (xy 168.895 111.633439) (xy 168.895 111.886561) (xy 168.944381 112.134821) (xy 169.041247 112.368676) (xy 169.181875 112.57914)
        (xy 169.36086 112.758125) (xy 169.571324 112.898753) (xy 169.805179 112.995619) (xy 169.892038 113.012896) (xy 169.33 113.012896)
        (xy 169.244725 113.021295) (xy 169.162728 113.046169) (xy 169.087158 113.086561) (xy 169.020921 113.140921) (xy 168.966561 113.207158)
        (xy 168.926169 113.282728) (xy 168.901295 113.364725) (xy 168.892896 113.45) (xy 168.892896 115.15) (xy 168.901295 115.235275)
        (xy 168.926169 115.317272) (xy 168.966561 115.392842) (xy 169.020921 115.459079) (xy 169.087158 115.513439) (xy 169.162728 115.553831)
        (xy 169.244725 115.578705) (xy 169.33 115.587104) (xy 171.03 115.587104) (xy 171.115275 115.578705) (xy 171.196 115.554217)
        (xy 171.196 115.697) (xy 138.811 115.697) (xy 138.811 115.228265) (xy 138.88086 115.298125) (xy 139.091324 115.438753)
        (xy 139.325179 115.535619) (xy 139.573439 115.585) (xy 139.826561 115.585) (xy 140.074821 115.535619) (xy 140.308676 115.438753)
        (xy 140.51914 115.298125) (xy 140.698125 115.11914) (xy 140.838753 114.908676) (xy 140.935619 114.674821) (xy 140.985 114.426561)
        (xy 140.985 114.195867) (xy 143.983728 111.19714) (xy 144.015591 111.170991) (xy 144.119936 111.043846) (xy 144.197472 110.898787)
        (xy 144.245218 110.741389) (xy 144.2573 110.618719) (xy 144.2573 110.618718) (xy 144.26134 110.577701) (xy 144.2573 110.536682)
        (xy 144.2573 109.98376) (xy 144.249258 109.943332) (xy 144.245218 109.902311) (xy 144.233252 109.862864) (xy 144.225211 109.82244)
        (xy 144.209439 109.784362) (xy 144.197472 109.744913) (xy 144.17804 109.708558) (xy 144.162267 109.670479) (xy 144.139367 109.636207)
        (xy 144.119936 109.599854) (xy 144.093787 109.567991) (xy 144.070887 109.533719) (xy 144.041741 109.504573) (xy 144.015591 109.472709)
        (xy 143.983727 109.446559) (xy 143.954581 109.417413) (xy 143.920309 109.394513) (xy 143.888446 109.368364) (xy 143.852093 109.348933)
        (xy 143.817821 109.326033) (xy 143.779742 109.31026) (xy 143.743387 109.290828) (xy 143.703938 109.278861) (xy 143.66586 109.263089)
        (xy 143.625436 109.255048) (xy 143.585989 109.243082) (xy 143.544968 109.239042) (xy 143.50454 109.231) (xy 143.463319 109.231)
        (xy 143.4223 109.22696) (xy 143.381282 109.231) (xy 143.34006 109.231) (xy 143.299631 109.239042) (xy 143.258612 109.243082)
        (xy 143.219167 109.255047) (xy 143.17874 109.263089) (xy 143.14066 109.278862) (xy 143.101214 109.290828) (xy 143.064862 109.310258)
        (xy 143.026779 109.326033) (xy 142.992503 109.348936) (xy 142.956155 109.368364) (xy 142.924297 109.394509) (xy 142.890019 109.417413)
        (xy 142.860869 109.446563) (xy 142.82901 109.472709) (xy 142.802864 109.504568) (xy 142.773713 109.533719) (xy 142.750809 109.567998)
        (xy 142.724665 109.599854) (xy 142.705237 109.636201) (xy 142.682333 109.670479) (xy 142.666559 109.70856) (xy 142.647128 109.744913)
        (xy 142.635161 109.784362) (xy 142.619389 109.82244) (xy 142.611348 109.862864) (xy 142.599382 109.902311) (xy 142.595342 109.943332)
        (xy 142.5873 109.98376) (xy 142.5873 110.231832) (xy 140.985 111.834132) (xy 140.985 111.633439) (xy 140.935619 111.385179)
        (xy 140.838753 111.151324) (xy 140.698125 110.94086) (xy 140.51914 110.761875) (xy 140.308676 110.621247) (xy 140.074821 110.524381)
        (xy 139.901973 110.49) (xy 140.074821 110.455619) (xy 140.308676 110.358753) (xy 140.51914 110.218125) (xy 140.698125 110.03914)
        (xy 140.838753 109.828676) (xy 140.935619 109.594821) (xy 140.985 109.346561) (xy 140.985 109.093439) (xy 140.935619 108.845179)
        (xy 140.838753 108.611324) (xy 140.698125 108.40086) (xy 140.51914 108.221875) (xy 140.308676 108.081247) (xy 140.074821 107.984381)
        (xy 139.901973 107.95) (xy 140.074821 107.915619) (xy 140.308676 107.818753) (xy 140.51914 107.678125) (xy 140.698125 107.49914)
        (xy 140.838753 107.288676) (xy 140.935619 107.054821) (xy 140.985 106.806561) (xy 140.985 106.575867) (xy 152.325533 95.235336)
        (xy 152.357391 95.209191) (xy 152.400798 95.1563) (xy 152.461736 95.082046) (xy 152.539272 94.936987) (xy 152.587018 94.779589)
        (xy 152.60314 94.6159) (xy 152.5991 94.574882) (xy 152.5991 93.86686) (xy 152.591058 93.826432) (xy 152.587018 93.785411)
        (xy 152.575052 93.745964) (xy 152.567011 93.70554) (xy 152.551239 93.667462) (xy 152.539272 93.628013) (xy 152.51984 93.591658)
        (xy 152.504067 93.553579) (xy 152.481167 93.519307) (xy 152.461736 93.482954) (xy 152.435587 93.451091) (xy 152.412687 93.416819)
        (xy 152.383541 93.387673) (xy 152.357391 93.355809) (xy 152.325527 93.329659) (xy 152.296381 93.300513) (xy 152.262109 93.277613)
        (xy 152.230246 93.251464) (xy 152.193893 93.232033) (xy 152.159621 93.209133) (xy 152.121542 93.19336) (xy 152.085187 93.173928)
        (xy 152.045738 93.161961) (xy 152.00766 93.146189) (xy 151.967236 93.138148) (xy 151.927789 93.126182) (xy 151.886768 93.122142)
        (xy 151.84634 93.1141) (xy 151.805119 93.1141) (xy 151.7641 93.11006) (xy 151.723082 93.1141) (xy 151.68186 93.1141)
        (xy 151.641431 93.122142) (xy 151.600412 93.126182) (xy 151.560967 93.138147) (xy 151.52054 93.146189) (xy 151.48246 93.161962)
        (xy 151.443014 93.173928) (xy 151.406662 93.193358) (xy 151.3977 93.197071) (xy 151.3977 89.45306) (xy 151.389658 89.412632)
        (xy 151.385618 89.371611) (xy 151.373652 89.332164) (xy 151.365611 89.29174) (xy 151.349839 89.253662) (xy 151.337872 89.214213)
        (xy 151.31844 89.177858) (xy 151.302667 89.139779) (xy 151.279767 89.105507) (xy 151.260336 89.069154) (xy 151.234187 89.037291)
        (xy 151.211287 89.003019) (xy 151.182141 88.973873) (xy 151.155991 88.942009) (xy 151.124127 88.915859) (xy 151.094981 88.886713)
        (xy 151.060709 88.863813) (xy 151.028846 88.837664) (xy 150.992493 88.818233) (xy 150.958221 88.795333) (xy 150.920142 88.77956)
        (xy 150.883787 88.760128) (xy 150.844338 88.748161) (xy 150.80626 88.732389) (xy 150.765836 88.724348) (xy 150.726389 88.712382)
        (xy 150.685368 88.708342) (xy 150.64494 88.7003) (xy 150.603719 88.7003) (xy 150.5627 88.69626) (xy 150.521682 88.7003)
        (xy 150.48046 88.7003) (xy 150.440031 88.708342) (xy 150.399012 88.712382) (xy 150.359567 88.724347) (xy 150.31914 88.732389)
        (xy 150.28106 88.748162) (xy 150.241614 88.760128) (xy 150.205262 88.779558) (xy 150.167179 88.795333) (xy 150.132903 88.818236)
        (xy 150.096555 88.837664) (xy 150.064697 88.863809) (xy 150.030419 88.886713) (xy 150.001269 88.915863) (xy 149.96941 88.942009)
        (xy 149.943264 88.973868) (xy 149.914113 89.003019) (xy 149.891209 89.037298) (xy 149.865065 89.069154) (xy 149.845638 89.105499)
        (xy 149.822733 89.139779) (xy 149.806957 89.177866) (xy 149.787529 89.214213) (xy 149.775565 89.253653) (xy 149.759789 89.29174)
        (xy 149.751746 89.332174) (xy 149.739783 89.371611) (xy 149.735744 89.412622) (xy 149.7277 89.45306) (xy 149.7277 89.61754)
        (xy 149.727701 89.617545) (xy 149.7277 92.931431) (xy 140.985 101.674133) (xy 140.985 101.473439) (xy 140.935619 101.225179)
        (xy 140.838753 100.991324) (xy 140.698125 100.78086) (xy 140.51914 100.601875) (xy 140.308676 100.461247) (xy 140.074821 100.364381)
        (xy 139.901973 100.33) (xy 140.074821 100.295619) (xy 140.308676 100.198753) (xy 140.51914 100.058125) (xy 140.698125 99.87914)
        (xy 140.838753 99.668676) (xy 140.935619 99.434821) (xy 140.985 99.186561) (xy 140.985 98.955867) (xy 149.213327 90.727541)
        (xy 149.245191 90.701391) (xy 149.349536 90.574246) (xy 149.427072 90.429187) (xy 149.474818 90.271789) (xy 149.4869 90.149119)
        (xy 149.4869 90.149109) (xy 149.490939 90.108101) (xy 149.4869 90.067093) (xy 149.4869 88.69576) (xy 149.478858 88.655332)
        (xy 149.474818 88.614311) (xy 149.462852 88.574864) (xy 149.454811 88.53444) (xy 149.439039 88.496362) (xy 149.427072 88.456913)
        (xy 149.40764 88.420558) (xy 149.391867 88.382479) (xy 149.368967 88.348207) (xy 149.349536 88.311854) (xy 149.323387 88.279991)
        (xy 149.300487 88.245719) (xy 149.271341 88.216573) (xy 149.245191 88.184709) (xy 149.213328 88.15856) (xy 149.184181 88.129413)
        (xy 149.149905 88.10651) (xy 149.118045 88.080364) (xy 149.081697 88.060936) (xy 149.047421 88.038033) (xy 149.019682 88.026543)
        (xy 149.094972 87.885687) (xy 149.142718 87.728289) (xy 149.150921 87.645) (xy 149.15884 87.564601) (xy 149.1548 87.523582)
        (xy 149.1548 86.53426) (xy 149.146758 86.493832) (xy 149.142718 86.452811) (xy 149.130752 86.413364) (xy 149.122711 86.37294)
        (xy 149.106939 86.334862) (xy 149.094972 86.295413) (xy 149.07554 86.259058) (xy 149.059767 86.220979) (xy 149.036867 86.186707)
        (xy 149.017436 86.150354) (xy 148.991287 86.118491) (xy 148.968387 86.084219) (xy 148.939241 86.055073) (xy 148.913091 86.023209)
        (xy 148.881228 85.99706) (xy 148.852081 85.967913) (xy 148.817805 85.94501) (xy 148.785945 85.918864) (xy 148.749597 85.899436)
        (xy 148.715321 85.876533) (xy 148.677238 85.860758) (xy 148.640886 85.841328) (xy 148.60144 85.829362) (xy 148.56336 85.813589)
        (xy 148.522933 85.805547) (xy 148.483488 85.793582) (xy 148.442469 85.789542) (xy 148.40204 85.7815) (xy 148.360818 85.7815)
        (xy 148.3198 85.77746) (xy 148.278781 85.7815) (xy 148.23756 85.7815) (xy 148.197132 85.789542) (xy 148.156111 85.793582)
        (xy 148.116664 85.805548) (xy 148.07624 85.813589) (xy 148.038162 85.829361) (xy 147.998713 85.841328) (xy 147.962358 85.86076)
        (xy 147.924279 85.876533) (xy 147.890007 85.899433) (xy 147.853654 85.918864) (xy 147.821791 85.945013) (xy 147.787519 85.967913)
        (xy 147.758373 85.997059) (xy 147.726509 86.023209) (xy 147.70036 86.055072) (xy 147.671213 86.084219) (xy 147.64831 86.118495)
        (xy 147.622164 86.150355) (xy 147.602736 86.186703) (xy 147.579833 86.220979) (xy 147.564058 86.259062) (xy 147.544628 86.295414)
        (xy 147.532662 86.33486) (xy 147.516889 86.37294) (xy 147.508847 86.413367) (xy 147.496882 86.452812) (xy 147.492842 86.493831)
        (xy 147.4848 86.53426) (xy 147.4848 86.575482) (xy 147.484801 87.218731) (xy 140.962618 93.740915) (xy 140.935619 93.605179)
        (xy 140.838753 93.371324) (xy 140.698125 93.16086) (xy 140.51914 92.981875) (xy 140.308676 92.841247) (xy 140.074821 92.744381)
        (xy 139.901973 92.71) (xy 140.074821 92.675619) (xy 140.308676 92.578753) (xy 140.51914 92.438125) (xy 140.682265 92.275)
        (xy 141.308981 92.275) (xy 141.35 92.27904) (xy 141.391018 92.275) (xy 141.391019 92.275) (xy 141.513689 92.262918)
        (xy 141.671087 92.215172) (xy 141.816146 92.137636) (xy 141.943291 92.033291) (xy 142.047636 91.906146) (xy 142.125172 91.761087)
        (xy 142.172918 91.603689) (xy 142.18904 91.44) (xy 142.185 91.398981) (xy 142.185 91.066067) (xy 148.939239 84.31183)
        (xy 148.939244 84.311824) (xy 148.968387 84.282681) (xy 148.991286 84.24841) (xy 149.017436 84.216546) (xy 149.036867 84.180193)
        (xy 149.059767 84.145921) (xy 149.07554 84.107842) (xy 149.094972 84.071487) (xy 149.106938 84.032038) (xy 149.122711 83.99396)
        (xy 149.130752 83.953534) (xy 149.142718 83.914088) (xy 149.146758 83.873069) (xy 149.1548 83.83264) (xy 149.1548 83.791418)
        (xy 149.15884 83.7504) (xy 149.1548 83.709382) (xy 149.1548 83.66816) (xy 149.146758 83.627731) (xy 149.142718 83.586712)
        (xy 149.130753 83.547267) (xy 149.122711 83.50684) (xy 149.106938 83.46876) (xy 149.094972 83.429314) (xy 149.075542 83.392962)
        (xy 149.059767 83.354879) (xy 149.036864 83.320603) (xy 149.017436 83.284255) (xy 148.99129 83.252395) (xy 148.968387 83.218119)
        (xy 148.93924 83.188972) (xy 148.913091 83.157109) (xy 148.881228 83.13096) (xy 148.852081 83.101813) (xy 148.817805 83.07891)
        (xy 148.785945 83.052764) (xy 148.749597 83.033336) (xy 148.715321 83.010433) (xy 148.677238 82.994658) (xy 148.640886 82.975228)
        (xy 148.60144 82.963262) (xy 148.56336 82.947489) (xy 148.522933 82.939447) (xy 148.483488 82.927482) (xy 148.442469 82.923442)
        (xy 148.40204 82.9154) (xy 148.360818 82.9154) (xy 148.3198 82.91136) (xy 148.278782 82.9154) (xy 148.23756 82.9154)
        (xy 148.197131 82.923442) (xy 148.156112 82.927482) (xy 148.116666 82.939448) (xy 148.07624 82.947489) (xy 148.038162 82.963262)
        (xy 147.998713 82.975228) (xy 147.962358 82.99466) (xy 147.924279 83.010433) (xy 147.890007 83.033333) (xy 147.853654 83.052764)
        (xy 147.82179 83.078914) (xy 147.787519 83.101813) (xy 147.758376 83.130956) (xy 147.75837 83.130961) (xy 140.788574 90.100759)
        (xy 140.75671 90.126909) (xy 140.689325 90.209018) (xy 140.652364 90.254055) (xy 140.574828 90.399114) (xy 140.551915 90.47465)
        (xy 140.51914 90.441875) (xy 140.308676 90.301247) (xy 140.074821 90.204381) (xy 139.901973 90.17) (xy 140.074821 90.135619)
        (xy 140.308676 90.038753) (xy 140.51914 89.898125) (xy 140.698125 89.71914) (xy 140.838753 89.508676) (xy 140.935619 89.274821)
        (xy 140.985 89.026561) (xy 140.985 88.773439) (xy 140.935619 88.525179) (xy 140.838753 88.291324) (xy 140.698125 88.08086)
        (xy 140.51914 87.901875) (xy 140.308676 87.761247) (xy 140.074821 87.664381) (xy 139.901973 87.63) (xy 140.074821 87.595619)
        (xy 140.308676 87.498753) (xy 140.51914 87.358125) (xy 140.698125 87.17914) (xy 140.838753 86.968676) (xy 140.935619 86.734821)
        (xy 140.985 86.486561) (xy 140.985 86.233439) (xy 140.935619 85.985179) (xy 140.838753 85.751324) (xy 140.698125 85.54086)
        (xy 140.51914 85.361875) (xy 140.308676 85.221247) (xy 140.074821 85.124381) (xy 139.901973 85.09) (xy 140.074821 85.055619)
        (xy 140.308676 84.958753) (xy 140.51914 84.818125) (xy 140.698125 84.63914) (xy 140.838753 84.428676) (xy 140.935619 84.194821)
        (xy 140.985 83.946561) (xy 140.985 83.693439) (xy 140.935619 83.445179) (xy 140.838753 83.211324) (xy 140.698125 83.00086)
        (xy 140.51914 82.821875) (xy 140.437703 82.767461) (xy 140.55 82.768072) (xy 140.674482 82.755812) (xy 140.79418 82.719502)
        (xy 140.904494 82.660537) (xy 141.001185 82.581185) (xy 141.080537 82.484494) (xy 141.139502 82.37418) (xy 141.175812 82.254482)
        (xy 141.188072 82.13) (xy 141.185 81.56575) (xy 141.02625 81.407) (xy 139.827 81.407) (xy 139.827 81.427)
        (xy 139.573 81.427) (xy 139.573 81.407) (xy 139.553 81.407) (xy 139.553 81.153) (xy 139.573 81.153)
        (xy 139.573 79.95375) (xy 139.827 79.95375) (xy 139.827 81.153) (xy 141.02625 81.153) (xy 141.185 80.99425)
        (xy 141.188072 80.43) (xy 141.175812 80.305518) (xy 141.139502 80.18582) (xy 141.080537 80.075506) (xy 141.001185 79.978815)
        (xy 140.904494 79.899463) (xy 140.79418 79.840498) (xy 140.674482 79.804188) (xy 140.55 79.791928) (xy 139.98575 79.795)
        (xy 139.827 79.95375) (xy 139.573 79.95375) (xy 139.41425 79.795) (xy 138.85 79.791928) (xy 138.811 79.795769)
        (xy 138.811 79.248) (xy 171.196 79.248)
      )
    )
  )
  (zone (net 2) (net_name P13) (layer F.Cu) (tstamp 0) (hatch edge 0.508)
    (connect_pads (clearance 0.308))
    (min_thickness 0.254)
    (fill yes (arc_segments 32) (thermal_gap 0.508) (thermal_bridge_width 0.508))
    (polygon
      (pts
        (xy 171.323 116.1415) (xy 138.684 115.824) (xy 138.684 79.121) (xy 171.323 79.4385)
      )
    )
    (filled_polygon
      (pts
        (xy 161.952896 79.474357) (xy 161.952896 80.16) (xy 161.961295 80.245275) (xy 161.980929 80.31) (xy 161.961295 80.374725)
        (xy 161.952896 80.46) (xy 161.952896 81.26) (xy 161.961295 81.345275) (xy 161.980929 81.41) (xy 161.961295 81.474725)
        (xy 161.952896 81.56) (xy 161.952896 82.36) (xy 161.961295 82.445275) (xy 161.980929 82.51) (xy 161.961295 82.574725)
        (xy 161.952896 82.66) (xy 161.952896 83.46) (xy 161.961295 83.545275) (xy 161.980929 83.61) (xy 161.961295 83.674725)
        (xy 161.952896 83.76) (xy 161.952896 84.56) (xy 161.961295 84.645275) (xy 161.980929 84.71) (xy 161.961295 84.774725)
        (xy 161.952896 84.86) (xy 161.952896 85.363332) (xy 161.926897 85.349436) (xy 161.892621 85.326533) (xy 161.854538 85.310758)
        (xy 161.818186 85.291328) (xy 161.77874 85.279362) (xy 161.74066 85.263589) (xy 161.700233 85.255547) (xy 161.660788 85.243582)
        (xy 161.619769 85.239542) (xy 161.57934 85.2315) (xy 161.538118 85.2315) (xy 161.4971 85.22746) (xy 161.456082 85.2315)
        (xy 161.41486 85.2315) (xy 161.374431 85.239542) (xy 161.333412 85.243582) (xy 161.293967 85.255547) (xy 161.25354 85.263589)
        (xy 161.21546 85.279362) (xy 161.176014 85.291328) (xy 161.139662 85.310758) (xy 161.101579 85.326533) (xy 161.067303 85.349436)
        (xy 161.030955 85.368864) (xy 160.999098 85.395008) (xy 160.964819 85.417913) (xy 160.935665 85.447067) (xy 160.90381 85.47321)
        (xy 160.877667 85.505065) (xy 160.848513 85.534219) (xy 160.825608 85.568498) (xy 160.799464 85.600355) (xy 160.780036 85.636703)
        (xy 160.757133 85.670979) (xy 160.741358 85.709062) (xy 160.721928 85.745414) (xy 160.709962 85.78486) (xy 160.694189 85.82294)
        (xy 160.686147 85.863367) (xy 160.674182 85.902812) (xy 160.670142 85.943831) (xy 160.6621 85.98426) (xy 160.6621 86.025482)
        (xy 160.65806 86.0665) (xy 160.6621 86.107518) (xy 160.6621 86.14874) (xy 160.670142 86.189169) (xy 160.674182 86.230188)
        (xy 160.686147 86.269633) (xy 160.694189 86.31006) (xy 160.709962 86.34814) (xy 160.721928 86.387586) (xy 160.741358 86.423938)
        (xy 160.757133 86.462021) (xy 160.761678 86.468823) (xy 160.767082 86.523689) (xy 160.814828 86.681087) (xy 160.892364 86.826146)
        (xy 160.996709 86.953291) (xy 161.099847 87.037934) (xy 161.086713 87.057591) (xy 161.060564 87.089454) (xy 161.041133 87.125807)
        (xy 161.018233 87.160079) (xy 161.00246 87.198158) (xy 160.983028 87.234513) (xy 160.971061 87.273962) (xy 160.955289 87.31204)
        (xy 160.947248 87.352464) (xy 160.935282 87.391911) (xy 160.931242 87.432932) (xy 160.9232 87.47336) (xy 160.9232 87.514581)
        (xy 160.91916 87.5556) (xy 160.9232 87.596619) (xy 160.9232 87.63784) (xy 160.931242 87.678268) (xy 160.935282 87.719289)
        (xy 160.947248 87.758736) (xy 160.955289 87.79916) (xy 160.971061 87.837238) (xy 160.983028 87.876687) (xy 161.00246 87.913042)
        (xy 161.00615 87.921949) (xy 160.951609 87.966709) (xy 160.925454 87.998579) (xy 160.865122 88.058911) (xy 160.865119 88.058913)
        (xy 160.748813 88.175219) (xy 160.725909 88.209498) (xy 160.699764 88.241355) (xy 160.680336 88.277703) (xy 160.657433 88.311979)
        (xy 160.641658 88.350062) (xy 160.622228 88.386414) (xy 160.610262 88.42586) (xy 160.594489 88.46394) (xy 160.586447 88.504367)
        (xy 160.574482 88.543812) (xy 160.570442 88.584831) (xy 160.5624 88.62526) (xy 160.5624 88.666482) (xy 160.55836 88.7075)
        (xy 160.5624 88.748518) (xy 160.5624 88.78974) (xy 160.570442 88.830169) (xy 160.574482 88.871188) (xy 160.586447 88.910633)
        (xy 160.594489 88.95106) (xy 160.610262 88.98914) (xy 160.622228 89.028586) (xy 160.641658 89.064938) (xy 160.657433 89.103021)
        (xy 160.680336 89.137297) (xy 160.699764 89.173645) (xy 160.725908 89.205502) (xy 160.748813 89.239781) (xy 160.777967 89.268935)
        (xy 160.80411 89.30079) (xy 160.835965 89.326933) (xy 160.865119 89.356087) (xy 160.899398 89.378992) (xy 160.931255 89.405136)
        (xy 160.932845 89.405986) (xy 160.218474 90.120359) (xy 160.18661 90.146509) (xy 160.152858 90.187636) (xy 160.082264 90.273655)
        (xy 160.004728 90.418714) (xy 159.956982 90.576112) (xy 159.94086 90.7398) (xy 159.944901 90.780828) (xy 159.9449 96.055981)
        (xy 159.94086 96.097) (xy 159.9449 96.138018) (xy 159.956982 96.260688) (xy 160.004728 96.418086) (xy 160.082264 96.563145)
        (xy 160.186609 96.690291) (xy 160.218479 96.716446) (xy 162.74217 99.240139) (xy 162.742176 99.240144) (xy 162.771319 99.269287)
        (xy 162.80559 99.292186) (xy 162.837454 99.318336) (xy 162.873807 99.337767) (xy 162.908079 99.360667) (xy 162.946158 99.37644)
        (xy 162.982513 99.395872) (xy 163.021962 99.407838) (xy 163.06004 99.423611) (xy 163.100466 99.431652) (xy 163.139912 99.443618)
        (xy 163.180931 99.447658) (xy 163.22136 99.4557) (xy 163.262582 99.4557) (xy 163.3036 99.45974) (xy 163.344618 99.4557)
        (xy 163.38584 99.4557) (xy 163.426269 99.447658) (xy 163.467288 99.443618) (xy 163.506733 99.431653) (xy 163.54716 99.423611)
        (xy 163.58524 99.407838) (xy 163.624686 99.395872) (xy 163.661038 99.376442) (xy 163.699121 99.360667) (xy 163.733397 99.337764)
        (xy 163.769745 99.318336) (xy 163.801605 99.29219) (xy 163.835881 99.269287) (xy 163.865029 99.240139) (xy 163.896891 99.213991)
        (xy 163.92304 99.182128) (xy 163.952187 99.152981) (xy 163.97509 99.118705) (xy 164.001236 99.086845) (xy 164.020664 99.050497)
        (xy 164.043567 99.016221) (xy 164.059342 98.978138) (xy 164.078772 98.941786) (xy 164.090738 98.90234) (xy 164.106511 98.86426)
        (xy 164.114553 98.823833) (xy 164.126518 98.784388) (xy 164.130558 98.743369) (xy 164.1386 98.70294) (xy 164.1386 98.661718)
        (xy 164.14264 98.6207) (xy 164.1386 98.579682) (xy 164.1386 98.53846) (xy 164.130558 98.498031) (xy 164.126518 98.457012)
        (xy 164.114552 98.417566) (xy 164.106511 98.37714) (xy 164.090738 98.339062) (xy 164.078772 98.299613) (xy 164.05934 98.263258)
        (xy 164.043567 98.225179) (xy 164.020667 98.190907) (xy 164.001236 98.154554) (xy 163.975086 98.12269) (xy 163.952187 98.088419)
        (xy 163.923044 98.059276) (xy 163.923039 98.05927) (xy 161.6149 95.751133) (xy 161.6149 95.142364) (xy 161.621012 95.144218)
        (xy 161.662031 95.148258) (xy 161.70246 95.1563) (xy 161.743682 95.1563) (xy 161.7847 95.16034) (xy 161.825719 95.1563)
        (xy 161.86694 95.1563) (xy 161.907368 95.148258) (xy 161.948389 95.144218) (xy 161.987836 95.132252) (xy 162.02826 95.124211)
        (xy 162.066338 95.108439) (xy 162.105787 95.096472) (xy 162.142142 95.07704) (xy 162.180221 95.061267) (xy 162.214493 95.038367)
        (xy 162.250846 95.018936) (xy 162.282709 94.992787) (xy 162.316981 94.969887) (xy 162.346127 94.940741) (xy 162.377991 94.914591)
        (xy 162.392342 94.897104) (xy 164.855001 94.897104) (xy 164.855 109.768981) (xy 164.85096 109.81) (xy 164.855 109.851018)
        (xy 164.867082 109.973688) (xy 164.914828 110.131086) (xy 164.992364 110.276145) (xy 165.096709 110.403291) (xy 165.128579 110.429446)
        (xy 168.892896 114.193765) (xy 168.892896 115.15) (xy 168.901295 115.235275) (xy 168.926169 115.317272) (xy 168.966561 115.392842)
        (xy 169.020921 115.459079) (xy 169.087158 115.513439) (xy 169.162728 115.553831) (xy 169.244725 115.578705) (xy 169.33 115.587104)
        (xy 171.03 115.587104) (xy 171.115275 115.578705) (xy 171.196 115.554217) (xy 171.196 115.745) (xy 143.619046 115.745)
        (xy 138.811 115.698229) (xy 138.811 115.228265) (xy 138.88086 115.298125) (xy 139.091324 115.438753) (xy 139.325179 115.535619)
        (xy 139.573439 115.585) (xy 139.826561 115.585) (xy 140.074821 115.535619) (xy 140.308676 115.438753) (xy 140.51914 115.298125)
        (xy 140.698125 115.11914) (xy 140.838753 114.908676) (xy 140.935619 114.674821) (xy 140.985 114.426561) (xy 140.985 114.173439)
        (xy 140.935619 113.925179) (xy 140.838753 113.691324) (xy 140.698125 113.48086) (xy 140.51914 113.301875) (xy 140.308676 113.161247)
        (xy 140.244846 113.134808) (xy 140.331252 113.104157) (xy 140.581355 112.955178) (xy 140.797588 112.760269) (xy 140.971641 112.52692)
        (xy 141.096825 112.264099) (xy 141.141476 112.11689) (xy 141.020155 111.887) (xy 139.827 111.887) (xy 139.827 111.907)
        (xy 139.573 111.907) (xy 139.573 111.887) (xy 139.553 111.887) (xy 139.553 111.633) (xy 139.573 111.633)
        (xy 139.573 111.613) (xy 139.827 111.613) (xy 139.827 111.633) (xy 141.020155 111.633) (xy 141.141476 111.40311)
        (xy 141.096825 111.255901) (xy 140.971641 110.99308) (xy 140.797588 110.759731) (xy 140.581355 110.564822) (xy 140.331252 110.415843)
        (xy 140.244846 110.385192) (xy 140.308676 110.358753) (xy 140.51914 110.218125) (xy 140.698125 110.03914) (xy 140.838753 109.828676)
        (xy 140.935619 109.594821) (xy 140.985 109.346561) (xy 140.985 109.115867) (xy 144.751433 105.349436) (xy 144.783291 105.323291)
        (xy 144.819843 105.278753) (xy 144.887636 105.196146) (xy 144.965172 105.051087) (xy 145.012918 104.893689) (xy 145.02904 104.73)
        (xy 145.025 104.688982) (xy 145.025 94.897104) (xy 145.405001 94.897104) (xy 145.405 106.902431) (xy 142.890022 109.417411)
        (xy 142.890019 109.417413) (xy 142.773713 109.533719) (xy 142.750809 109.567998) (xy 142.724664 109.599855) (xy 142.705236 109.636203)
        (xy 142.682333 109.670479) (xy 142.666558 109.708562) (xy 142.647128 109.744914) (xy 142.635162 109.78436) (xy 142.619389 109.82244)
        (xy 142.611347 109.862867) (xy 142.599382 109.902312) (xy 142.595342 109.943331) (xy 142.5873 109.98376) (xy 142.5873 110.024982)
        (xy 142.58326 110.066) (xy 142.5873 110.107018) (xy 142.5873 110.14824) (xy 142.595342 110.188669) (xy 142.599382 110.229688)
        (xy 142.611347 110.269133) (xy 142.619389 110.30956) (xy 142.635162 110.34764) (xy 142.647128 110.387086) (xy 142.666558 110.423438)
        (xy 142.682333 110.461521) (xy 142.705236 110.495797) (xy 142.724664 110.532145) (xy 142.750808 110.564002) (xy 142.773713 110.598281)
        (xy 142.802867 110.627435) (xy 142.82901 110.65929) (xy 142.860865 110.685433) (xy 142.890019 110.714587) (xy 142.924298 110.737492)
        (xy 142.956155 110.763636) (xy 142.992503 110.783064) (xy 143.026779 110.805967) (xy 143.064862 110.821742) (xy 143.101214 110.841172)
        (xy 143.14066 110.853138) (xy 143.17874 110.868911) (xy 143.219167 110.876953) (xy 143.258612 110.888918) (xy 143.299631 110.892958)
        (xy 143.34006 110.901) (xy 143.381282 110.901) (xy 143.4223 110.90504) (xy 143.463318 110.901) (xy 143.50454 110.901)
        (xy 143.544969 110.892958) (xy 143.585988 110.888918) (xy 143.625433 110.876953) (xy 143.66586 110.868911) (xy 143.70394 110.853138)
        (xy 143.743386 110.841172) (xy 143.779738 110.821742) (xy 143.817821 110.805967) (xy 143.852097 110.783064) (xy 143.888445 110.763636)
        (xy 143.920302 110.737491) (xy 143.954581 110.714587) (xy 144.070887 110.598281) (xy 144.070889 110.598278) (xy 146.801433 107.867736)
        (xy 146.833291 107.841591) (xy 146.937636 107.714446) (xy 147.015172 107.569387) (xy 147.062918 107.411989) (xy 147.075 107.289319)
        (xy 147.075 107.289318) (xy 147.07904 107.2483) (xy 147.075 107.207282) (xy 147.075 94.897104) (xy 147.49 94.897104)
        (xy 147.575275 94.888705) (xy 147.657272 94.863831) (xy 147.732842 94.823439) (xy 147.799079 94.769079) (xy 147.853439 94.702842)
        (xy 147.893831 94.627272) (xy 147.918705 94.545275) (xy 147.927104 94.46) (xy 147.927104 93.822741) (xy 147.941185 93.811185)
        (xy 148.020537 93.714494) (xy 148.079502 93.60418) (xy 148.115812 93.484482) (xy 148.128072 93.36) (xy 148.125 93.24575)
        (xy 147.96625 93.087) (xy 146.367 93.087) (xy 146.367 93.107) (xy 146.113 93.107) (xy 146.113 93.087)
        (xy 146.093 93.087) (xy 146.093 92.833) (xy 146.113 92.833) (xy 146.113 92.813) (xy 146.367 92.813)
        (xy 146.367 92.833) (xy 147.96625 92.833) (xy 148.125 92.67425) (xy 148.128072 92.56) (xy 148.115812 92.435518)
        (xy 148.079502 92.31582) (xy 148.020537 92.205506) (xy 147.941185 92.108815) (xy 147.927104 92.097259) (xy 147.927104 91.6946)
        (xy 148.328733 91.6946) (xy 151.20267 94.568539) (xy 151.202676 94.568544) (xy 151.231819 94.597687) (xy 151.26609 94.620586)
        (xy 151.297954 94.646736) (xy 151.334307 94.666167) (xy 151.368579 94.689067) (xy 151.406658 94.70484) (xy 151.443013 94.724272)
        (xy 151.482462 94.736239) (xy 151.52054 94.752011) (xy 151.560964 94.760052) (xy 151.600411 94.772018) (xy 151.641432 94.776058)
        (xy 151.68186 94.7841) (xy 151.723081 94.7841) (xy 151.7641 94.78814) (xy 151.805118 94.7841) (xy 151.84634 94.7841)
        (xy 151.886769 94.776058) (xy 151.927788 94.772018) (xy 151.967233 94.760053) (xy 152.00766 94.752011) (xy 152.04574 94.736238)
        (xy 152.085186 94.724272) (xy 152.121538 94.704842) (xy 152.159621 94.689067) (xy 152.193897 94.666164) (xy 152.230245 94.646736)
        (xy 152.262105 94.62059) (xy 152.296381 94.597687) (xy 152.325529 94.568539) (xy 152.357391 94.542391) (xy 152.38354 94.510528)
        (xy 152.412687 94.481381) (xy 152.43559 94.447105) (xy 152.461736 94.415245) (xy 152.481164 94.378897) (xy 152.504067 94.344621)
        (xy 152.519842 94.306538) (xy 152.539272 94.270186) (xy 152.551238 94.23074) (xy 152.567011 94.19266) (xy 152.575053 94.152233)
        (xy 152.587018 94.112788) (xy 152.591058 94.071769) (xy 152.5991 94.03134) (xy 152.5991 93.990118) (xy 152.60314 93.9491)
        (xy 152.5991 93.908081) (xy 152.5991 93.86686) (xy 152.591058 93.826432) (xy 152.587018 93.785411) (xy 152.575052 93.745964)
        (xy 152.567011 93.70554) (xy 152.551239 93.667462) (xy 152.539272 93.628013) (xy 152.51984 93.591658) (xy 152.504067 93.553579)
        (xy 152.481167 93.519307) (xy 152.461736 93.482954) (xy 152.435586 93.45109) (xy 152.412687 93.416819) (xy 152.383544 93.387676)
        (xy 152.383539 93.38767) (xy 149.609167 90.6133) (xy 150.278682 90.6133) (xy 150.3197 90.61734) (xy 150.360718 90.6133)
        (xy 150.360719 90.6133) (xy 150.483389 90.601218) (xy 150.640787 90.553472) (xy 150.785846 90.475936) (xy 150.912991 90.371591)
        (xy 150.939145 90.339722) (xy 151.182139 90.096729) (xy 151.211287 90.067581) (xy 151.23419 90.033304) (xy 151.260336 90.001445)
        (xy 151.279764 89.965097) (xy 151.302667 89.930821) (xy 151.318442 89.892738) (xy 151.337872 89.856386) (xy 151.349838 89.81694)
        (xy 151.365611 89.77886) (xy 151.373652 89.738435) (xy 151.385618 89.698989) (xy 151.389658 89.657968) (xy 151.3977 89.61754)
        (xy 151.3977 89.576319) (xy 151.40174 89.5353) (xy 151.3977 89.494282) (xy 151.3977 89.45306) (xy 151.389658 89.412631)
        (xy 151.385618 89.371612) (xy 151.373653 89.332167) (xy 151.365611 89.29174) (xy 151.349838 89.25366) (xy 151.337872 89.214214)
        (xy 151.318442 89.177862) (xy 151.302667 89.139779) (xy 151.279764 89.105503) (xy 151.260336 89.069155) (xy 151.234192 89.037298)
        (xy 151.211287 89.003019) (xy 151.182133 88.973865) (xy 151.15599 88.94201) (xy 151.124135 88.915867) (xy 151.094981 88.886713)
        (xy 151.060702 88.863808) (xy 151.028845 88.837664) (xy 150.992497 88.818236) (xy 150.958221 88.795333) (xy 150.920138 88.779558)
        (xy 150.883786 88.760128) (xy 150.84434 88.748162) (xy 150.80626 88.732389) (xy 150.765833 88.724347) (xy 150.726388 88.712382)
        (xy 150.685369 88.708342) (xy 150.64494 88.7003) (xy 150.603718 88.7003) (xy 150.5627 88.69626) (xy 150.521681 88.7003)
        (xy 150.48046 88.7003) (xy 150.440032 88.708342) (xy 150.399011 88.712382) (xy 150.359565 88.724348) (xy 150.31914 88.732389)
        (xy 150.28106 88.748162) (xy 150.241614 88.760128) (xy 150.205262 88.779558) (xy 150.167179 88.795333) (xy 150.132903 88.818236)
        (xy 150.096555 88.837664) (xy 150.064696 88.86381) (xy 150.030419 88.886713) (xy 149.973832 88.9433) (xy 149.474329 88.9433)
        (xy 149.474818 88.941688) (xy 149.478858 88.900669) (xy 149.4869 88.86024) (xy 149.4869 88.513918) (xy 149.49094 88.4729)
        (xy 149.474818 88.309211) (xy 149.427072 88.151813) (xy 149.349536 88.006754) (xy 149.271339 87.91147) (xy 149.271337 87.911468)
        (xy 149.245191 87.879609) (xy 149.213333 87.853464) (xy 148.715929 87.356061) (xy 148.749597 87.333564) (xy 148.785945 87.314136)
        (xy 148.817805 87.28799) (xy 148.852081 87.265087) (xy 148.881229 87.235939) (xy 148.913091 87.209791) (xy 148.93924 87.177928)
        (xy 148.968387 87.148781) (xy 148.99129 87.114505) (xy 149.017436 87.082645) (xy 149.036864 87.046297) (xy 149.059767 87.012021)
        (xy 149.075542 86.973938) (xy 149.094972 86.937586) (xy 149.106938 86.89814) (xy 149.122711 86.86006) (xy 149.130753 86.819633)
        (xy 149.142718 86.780188) (xy 149.146758 86.739169) (xy 149.1548 86.69874) (xy 149.1548 86.657518) (xy 149.15884 86.6165)
        (xy 149.1548 86.575482) (xy 149.1548 86.53426) (xy 149.146758 86.49383) (xy 149.142718 86.452813) (xy 149.130753 86.413369)
        (xy 149.126092 86.389935) (xy 149.12904 86.36) (xy 149.112918 86.196311) (xy 149.065172 86.038913) (xy 148.987636 85.893854)
        (xy 148.883291 85.766709) (xy 148.756146 85.662364) (xy 148.611087 85.584828) (xy 148.453689 85.537082) (xy 148.331019 85.525)
        (xy 148.29 85.52096) (xy 148.248982 85.525) (xy 147.927104 85.525) (xy 147.927104 84.995) (xy 148.248982 84.995)
        (xy 148.29 84.99904) (xy 148.453689 84.982918) (xy 148.611087 84.935172) (xy 148.756146 84.857636) (xy 148.883291 84.753291)
        (xy 148.987636 84.626146) (xy 149.065172 84.481087) (xy 149.112918 84.323689) (xy 149.125 84.201018) (xy 149.12904 84.16)
        (xy 149.125 84.118981) (xy 149.125 83.982453) (xy 149.130753 83.953531) (xy 149.142718 83.914087) (xy 149.146758 83.87307)
        (xy 149.1548 83.83264) (xy 149.1548 83.791418) (xy 149.15884 83.7504) (xy 149.1548 83.709382) (xy 149.1548 83.66816)
        (xy 149.146758 83.627731) (xy 149.142718 83.586712) (xy 149.130753 83.547267) (xy 149.122711 83.50684) (xy 149.106938 83.46876)
        (xy 149.094972 83.429314) (xy 149.075542 83.392962) (xy 149.059767 83.354879) (xy 149.036864 83.320603) (xy 149.017436 83.284255)
        (xy 148.99129 83.252395) (xy 148.968387 83.218119) (xy 148.93924 83.188972) (xy 148.913091 83.157109) (xy 148.881228 83.13096)
        (xy 148.852081 83.101813) (xy 148.817805 83.07891) (xy 148.785945 83.052764) (xy 148.749597 83.033336) (xy 148.715321 83.010433)
        (xy 148.677238 82.994658) (xy 148.640886 82.975228) (xy 148.60144 82.963262) (xy 148.56336 82.947489) (xy 148.522933 82.939447)
        (xy 148.483488 82.927482) (xy 148.442469 82.923442) (xy 148.40204 82.9154) (xy 148.360818 82.9154) (xy 148.3198 82.91136)
        (xy 148.278782 82.9154) (xy 148.23756 82.9154) (xy 148.19713 82.923442) (xy 148.156113 82.927482) (xy 148.116669 82.939447)
        (xy 148.07624 82.947489) (xy 148.038159 82.963263) (xy 147.998714 82.975228) (xy 147.962364 82.994658) (xy 147.927104 83.009263)
        (xy 147.927104 82.66) (xy 147.918705 82.574725) (xy 147.899071 82.51) (xy 147.918705 82.445275) (xy 147.927104 82.36)
        (xy 147.927104 81.56) (xy 147.918705 81.474725) (xy 147.899071 81.41) (xy 147.918705 81.345275) (xy 147.927104 81.26)
        (xy 147.927104 80.46) (xy 147.918705 80.374725) (xy 147.899071 80.31) (xy 147.918705 80.245275) (xy 147.927104 80.16)
        (xy 147.927104 79.36) (xy 147.924927 79.337898)
      )
    )
  )
)
